Verilog/EXP11/Test_Functions/rv32is_wave.vcd
$date
	Tue Nov 16 08:34:06 2021
$end
$version
	Icarus Verilog
$end
$timescale
	10ps
$end
$scope module cpu_single_vlg_tst $end
$var wire 32 ! idataout [31:0] $end
$var wire 1 " iclk $end
$var wire 32 # iaddr [31:0] $end
$var wire 1 $ dwrclk $end
$var wire 1 % dwe $end
$var wire 1 & drdclk $end
$var wire 3 ' dop [2:0] $end
$var wire 32 ( ddataout [31:0] $end
$var wire 32 ) ddatain [31:0] $end
$var wire 32 * daddr [31:0] $end
$var wire 32 + cpudbgdata [31:0] $end
$var reg 1 , clk $end
$var reg 1 - reset $end
$var reg 64 . testcase [64:1] $end
$var integer 32 / maxcycles [31:0] $end
$var integer 32 0 numcycles [31:0] $end
$scope module datamem $end
$var wire 1 $ wrclk $end
$var wire 16 1 wordout [15:0] $end
$var wire 1 % we $end
$var wire 1 & rdclk $end
$var wire 3 2 memop [2:0] $end
$var wire 32 3 memin [31:0] $end
$var wire 32 4 dwordout [31:0] $end
$var wire 32 5 datain [31:0] $end
$var wire 8 6 byteout [7:0] $end
$var wire 32 7 addr [31:0] $end
$var reg 32 8 dataout [31:0] $end
$var reg 4 9 wmask [3:0] $end
$scope module mymem $end
$var wire 4 : byteena_a [3:0] $end
$var wire 32 ; data [31:0] $end
$var wire 15 < rdaddress [14:0] $end
$var wire 15 = wraddress [14:0] $end
$var wire 1 % wren $end
$var wire 1 $ wrclock $end
$var wire 32 > tempin [31:0] $end
$var wire 1 & rdclock $end
$var reg 32 ? q [31:0] $end
$var reg 32 @ tempout [31:0] $end
$upscope $end
$upscope $end
$scope module instructions $end
$var wire 16 A address [15:0] $end
$var wire 32 B data [31:0] $end
$var wire 1 C wren $end
$var wire 1 " clock $end
$var reg 32 D q [31:0] $end
$upscope $end
$scope module mycpu $end
$var wire 1 , clock $end
$var wire 32 E dbgdata [31:0] $end
$var wire 32 F dmemaddr [31:0] $end
$var wire 32 G dmemdatain [31:0] $end
$var wire 32 H dmemdataout [31:0] $end
$var wire 3 I dmemop [2:0] $end
$var wire 1 & dmemrdclk $end
$var wire 1 % dmemwe $end
$var wire 1 $ dmemwrclk $end
$var wire 32 J imemaddr [31:0] $end
$var wire 1 " imemclk $end
$var wire 32 K imemdataout [31:0] $end
$var wire 32 L instr [31:0] $end
$var wire 1 - reset $end
$var wire 1 M zero $end
$var wire 5 N rw [4:0] $end
$var wire 1 O regwr $end
$var wire 5 P rb [4:0] $end
$var wire 5 Q ra [4:0] $end
$var wire 1 R pcBsrc $end
$var wire 32 S pcB [31:0] $end
$var wire 1 T pcAsrc $end
$var wire 32 U pcA [31:0] $end
$var wire 7 V op [6:0] $end
$var wire 32 W nxtpc [31:0] $end
$var wire 1 X memwr $end
$var wire 3 Y memop [2:0] $end
$var wire 1 Z mem2reg $end
$var wire 1 [ less $end
$var wire 32 \ imm [31:0] $end
$var wire 7 ] func7 [6:0] $end
$var wire 3 ^ func3 [2:0] $end
$var wire 3 _ extop [2:0] $end
$var wire 32 ` busW [31:0] $end
$var wire 32 a busB [31:0] $end
$var wire 32 b busA [31:0] $end
$var wire 3 c branch [2:0] $end
$var wire 32 d aluresult [31:0] $end
$var wire 32 e alub [31:0] $end
$var wire 32 f alua [31:0] $end
$var wire 4 g ALUctr [3:0] $end
$var wire 2 h ALUBsrc [1:0] $end
$var wire 1 i ALUAsrc $end
$var reg 32 j pc [31:0] $end
$scope module alu $end
$var wire 32 k datab [31:0] $end
$var wire 32 l dataa [31:0] $end
$var wire 1 m ZF $end
$var wire 1 n SF $end
$var wire 1 o OF $end
$var wire 1 p CF $end
$var wire 4 q ALUctr [3:0] $end
$var reg 32 r aluresult [31:0] $end
$var reg 1 [ less $end
$var reg 1 M zero $end
$scope module adder $end
$var wire 1 s add_or_sub $end
$var wire 32 t datab [31:0] $end
$var wire 32 u dataa [31:0] $end
$var reg 1 p CF $end
$var reg 1 o OF $end
$var reg 1 n SF $end
$var reg 1 m ZF $end
$var reg 1 v carry_n $end
$var reg 1 w carry_n_1 $end
$var reg 32 x datab_xor [31:0] $end
$var reg 32 y result [31:0] $end
$var reg 32 z result_tmp [31:0] $end
$upscope $end
$scope module shifter $end
$var wire 1 { a_or_h $end
$var wire 1 | l_or_r $end
$var wire 32 } datab [31:0] $end
$var wire 32 ~ dataa [31:0] $end
$var reg 32 !" result [31:0] $end
$upscope $end
$upscope $end
$scope module branchcond $end
$var wire 1 [ less $end
$var wire 1 T pcAsrc $end
$var wire 1 R pcBsrc $end
$var wire 1 M zero $end
$var wire 3 "" branch [2:0] $end
$upscope $end
$scope module contrgen $end
$var wire 1 i ALUAsrc $end
$var wire 3 #" func3 [2:0] $end
$var wire 7 $" func7 [6:0] $end
$var wire 3 %" memop [2:0] $end
$var wire 1 X memwr $end
$var wire 7 &" op [6:0] $end
$var wire 1 O regwr $end
$var wire 1 Z mem2reg $end
$var wire 3 '" extop [2:0] $end
$var wire 3 (" branch [2:0] $end
$var wire 4 )" ALUctr [3:0] $end
$var wire 2 *" ALUBsrc [1:0] $end
$upscope $end
$scope module immgen $end
$var wire 3 +" extop [2:0] $end
$var wire 25 ," instr_31_7 [24:0] $end
$var wire 32 -" immU [31:0] $end
$var wire 32 ." immS [31:0] $end
$var wire 32 /" immJ [31:0] $end
$var wire 32 0" immI [31:0] $end
$var wire 32 1" immB [31:0] $end
$var wire 32 2" imm [31:0] $end
$upscope $end
$scope module mux2_ALUAsrc $end
$var wire 32 3" input1 [31:0] $end
$var wire 1 i selector $end
$var wire 32 4" input0 [31:0] $end
$var wire 32 5" data [31:0] $end
$upscope $end
$scope module mux2_pcAsrc $end
$var wire 32 6" input0 [31:0] $end
$var wire 32 7" input1 [31:0] $end
$var wire 1 T selector $end
$var wire 32 8" data [31:0] $end
$upscope $end
$scope module mux2_pcBsrc $end
$var wire 32 9" input0 [31:0] $end
$var wire 1 R selector $end
$var wire 32 :" input1 [31:0] $end
$var wire 32 ;" data [31:0] $end
$upscope $end
$scope module mux2_regwr $end
$var wire 32 <" input0 [31:0] $end
$var wire 32 =" input1 [31:0] $end
$var wire 1 Z selector $end
$var wire 32 >" data [31:0] $end
$upscope $end
$scope module mux4_ALUBsrc $end
$var wire 32 ?" input1 [31:0] $end
$var wire 32 @" input2 [31:0] $end
$var wire 32 A" input3 [31:0] $end
$var wire 2 B" selector [1:0] $end
$var wire 32 C" input0 [31:0] $end
$var wire 32 D" data [31:0] $end
$upscope $end
$scope module myregfile $end
$var wire 32 E" busA [31:0] $end
$var wire 32 F" busB [31:0] $end
$var wire 32 G" busW [31:0] $end
$var wire 5 H" ra [4:0] $end
$var wire 5 I" rb [4:0] $end
$var wire 1 O regwr $end
$var wire 5 J" rw [4:0] $end
$var wire 1 K" wrclk $end
$upscope $end
$upscope $end
$scope begin TestBench $end
$upscope $end
$scope task checkmagnum $end
$upscope $end
$scope task checkmem $end
$var reg 32 L" debugdata [31:0] $end
$var reg 15 M" dmemaddr [14:0] $end
$var reg 32 N" inputaddr [31:0] $end
$var reg 32 O" results [31:0] $end
$upscope $end
$scope task checkpc $end
$var reg 32 P" results [31:0] $end
$upscope $end
$scope task checkreg $end
$var reg 32 Q" debugdata [31:0] $end
$var reg 5 R" regid [4:0] $end
$var reg 32 S" results [31:0] $end
$upscope $end
$scope task loaddatamem $end
$upscope $end
$scope task loadtestcase $end
$upscope $end
$scope task resetcpu $end
$upscope $end
$scope task step $end
$upscope $end
$scope task stepn $end
$var integer 32 T" i [31:0] $end
$var integer 32 U" n [31:0] $end
$upscope $end
$upscope $end
$enddefinitions $end
#0
$dumpvars
bx U"
bx T"
bx S"
bx R"
bx Q"
bx P"
bx O"
bx N"
bx M"
bx L"
xK"
bx J"
bx I"
bx H"
bx G"
bx F"
bx E"
bx D"
bx C"
bx B"
b0 A"
b100 @"
bx ?"
bx >"
bx ="
bx <"
bx ;"
bx :"
bx 9"
bx 8"
bx 7"
b100 6"
bx 5"
bx 4"
bx 3"
bx 2"
bx0 1"
bx 0"
bx0 /"
bx ."
bx000000000000 -"
bx ,"
bx +"
bx *"
bx )"
bx ("
bx '"
bx &"
bx %"
bx $"
bx #"
bx ""
bx !"
bx ~
bx }
x|
x{
bx z
bx y
bx x
xw
xv
bx u
bx t
xs
bx r
bx q
xp
xo
xn
xm
bx l
bx k
bx j
xi
bx h
bx g
bx f
bx e
bx d
bx c
bx b
bx a
bx `
bx _
bx ^
bx ]
bx \
x[
xZ
bx Y
xX
bx W
bx V
bx U
xT
bx S
xR
bx Q
bx P
xO
bx N
xM
bx L
bx K
bx J
bx I
bx H
bx G
bx F
bx E
bx D
0C
b0 B
bx A
bx @
bx ?
bx >
bx =
bx <
bx ;
bx :
bx 9
bx 8
bx 7
bx 6
bx 5
bx 4
bx 3
bx 2
bx 1
bx 0
b10011100010000 /
bx .
x-
x,
bx +
bx *
bx )
bx (
bx '
x&
x%
x$
bx #
x"
bx !
$end
#80000
b0 A
b0 #
b0 J
b0 W
1-
b11000010110010001100100 .
#170000
b1100100 `
b1100100 >"
b1100100 G"
b11001 =
b11001 <
1M
b1100100 *
b1100100 7
b1100100 F
b1100100 d
b1100100 r
b1100100 <"
0n
0m
0o
0p
0w
b1100100 z
0v
b1100100 y
b1100100 x
b0 !"
b1100100 e
b1100100 k
b1100100 t
b1100100 }
b1100100 D"
0s
1{
0T
0R
0%
0X
0|
1O
0i
b0 g
b0 q
b0 )"
b0 c
b0 ""
b0 ("
b100 U
b100 8"
b0 _
b0 '"
b0 +"
b1 h
b1 *"
b1 B"
0Z
0[
b1100100 \
b1100100 2"
b1100100 7"
b1100100 ?"
b0 9
b0 :
b0 S
b0 ;"
b0 f
b0 l
b0 u
b0 ~
b0 5"
b1100100 0"
b110010000000000000000000000 -"
b1100110 ."
b1100110 1"
b1100100 /"
b10011 V
b10011 &"
b0 '
b0 2
b0 I
b0 Y
b0 %"
b0 ^
b0 #"
b11 ]
b11 $"
b0 b
b0 4"
b0 :"
b0 E"
b0 Q
b0 H"
b100 P
b100 I"
b110 N
b110 J"
b11001000000000000110 ,"
b110010000000000001100010011 L
b110010000000000001100010011 !
b110010000000000001100010011 D
b110010000000000001100010011 K
b0 +
b0 E
b0 j
b0 3"
b0 9"
1K"
1"
1$
0&
0,
#270000
0K"
0"
0$
1&
1,
#330000
b1 A
b100 #
b100 J
b100 W
b0 0
0-
#420000
b10100 `
b10100 >"
b10100 G"
b101 =
b101 <
b10100 *
b10100 7
b10100 F
b10100 d
b10100 r
b10100 <"
b10100 z
b10100 y
b10100 x
b10100 e
b10100 k
b10100 t
b10100 }
b10100 D"
b10100 \
b10100 2"
b10100 7"
b10100 ?"
b10 A
b10100 0"
b1010000000000000000000000 -"
b111 ."
b100000000110 1"
b10100 /"
b1000 #
b1000 J
b1000 W
b0 ]
b0 $"
b10100 P
b10100 I"
b111 N
b111 J"
b101000000000000111 ,"
b100 S
b100 ;"
b1010000000000001110010011 L
b1010000000000001110010011 !
b1010000000000001110010011 D
b1010000000000001110010011 K
b100 +
b100 E
b100 j
b100 3"
b100 9"
1K"
1"
1$
0&
0,
#520000
0K"
0"
0$
b1 0
1&
1,
#530000
b100 P"
b1100100 Q"
b1100100 S"
b110 R"
#620000
b0 h
b0 *"
b0 B"
b10100 x
b10100 e
b10100 k
b10100 t
b10100 }
b10100 D"
b1111000 `
b1111000 >"
b1111000 G"
b11110 =
b11110 <
b1111000 *
b1111000 7
b1111000 F
b1111000 d
b1111000 r
b1111000 <"
b1111000 z
b1111000 y
b110010000000000000000000000 !"
b10100000101000001010000010100 3
b10100000101000001010000010100 ;
b111 \
b111 2"
b111 7"
b111 ?"
b11 A
b1100100 f
b1100100 l
b1100100 u
b1100100 ~
b1100100 5"
b111 0"
b11100110000000000000000 -"
b11100 ."
b11100 1"
b110000100000000110 /"
b1100 #
b1100 J
b1100 W
b110011 V
b110011 &"
b1100100 b
b1100100 4"
b1100100 :"
b1100100 E"
b110 Q
b110 H"
b10100 )
b10100 5
b10100 G
b10100 a
b10100 C"
b10100 F"
b111 P
b111 I"
b11100 N
b11100 J"
b1110011000011100 ,"
b1000 S
b1000 ;"
b11100110000111000110011 L
b11100110000111000110011 !
b11100110000111000110011 D
b11100110000111000110011 K
b1000 +
b1000 E
b1000 j
b1000 3"
b1000 9"
1K"
1"
1$
0&
0,
#720000
0K"
0"
0$
b10 0
1&
1,
#730000
b1000 P"
b10100 Q"
b10100 S"
b111 R"
#820000
bx U
bx 8"
xT
xR
xi
x{
xs
x%
xX
x|
xO
bx h
bx *"
bx B"
bx g
bx q
bx )"
bx c
bx ""
bx ("
bx `
bx >"
bx G"
bx =
bx <
bx _
bx '"
bx +"
xZ
xM
bx *
bx 7
bx F
bx d
bx r
bx <"
xn
xm
xo
xp
xw
bx z
xv
bx y
bx x
bx !"
bx e
bx k
bx t
bx }
bx D"
bx 3
bx ;
bx \
bx 2"
bx 7"
bx ?"
bx A
bx f
bx l
bx u
bx ~
bx 5"
bx 0"
bx000000000000 -"
bx ."
bx0 1"
bx0 /"
bx #
bx J
bx W
bx V
bx &"
bx '
bx 2
bx I
bx Y
bx %"
bx ^
bx #"
bx ]
bx $"
bx b
bx 4"
bx :"
bx E"
bx Q
bx H"
bx )
bx 5
bx G
bx a
bx C"
bx F"
bx P
bx I"
bx N
bx J"
bx ,"
bx S
bx ;"
bx L
bx !
bx D
bx K
b1100 +
b1100 E
b1100 j
b1100 3"
b1100 9"
1K"
1"
1$
0&
0,
#920000
0K"
0"
0$
b11 0
1&
1,
#930000
b0 A
b0 #
b0 J
b0 W
1-
b11000010110110001110101 .
b1111000 Q"
b1111000 S"
b11100 R"
#1020000
b1001111 `
b1001111 >"
b1001111 G"
b10011 =
b10011 <
1M
b1001111 *
b1001111 7
b1001111 F
b1001111 d
b1001111 r
b1001111 <"
0n
0m
0o
0p
0w
b1001111 z
0v
b1001111 y
b1001111 x
b0 !"
b1001111 e
b1001111 k
b1001111 t
b1001111 }
b1001111 D"
0s
1{
0T
0R
0%
0X
0|
1O
0i
b0 g
b0 q
b0 )"
b0 c
b0 ""
b0 ("
b100 U
b100 8"
b0 _
b0 '"
b0 +"
b1 h
b1 *"
b1 B"
0Z
b1001111 \
b1001111 2"
b1001111 7"
b1001111 ?"
b0 S
b0 ;"
b0 f
b0 l
b0 u
b0 ~
b0 5"
b1001111 0"
b100111100000000000000000000 -"
b1000110 ."
b1000110 1"
b100001001110 /"
b10011 V
b10011 &"
b0 '
b0 2
b0 I
b0 Y
b0 %"
b0 ^
b0 #"
b10 ]
b10 $"
b0 b
b0 4"
b0 :"
b0 E"
b0 Q
b0 H"
b1111 P
b1111 I"
b110 N
b110 J"
b10011110000000000110 ,"
b100111100000000001100010011 L
b100111100000000001100010011 !
b100111100000000001100010011 D
b100111100000000001100010011 K
b0 +
b0 E
b0 j
b0 3"
b0 9"
1K"
1"
1$
0&
0,
#1120000
0K"
0"
0$
b100 0
1&
1,
#1180000
b1 A
b100 #
b100 J
b100 W
b0 0
0-
#1270000
b11 `
b11 >"
b11 G"
b0 =
b0 <
b11 *
b11 7
b11 F
b11 d
b11 r
b11 <"
b11 z
b11 y
b11 x
b11 e
b11 k
b11 t
b11 }
b11 D"
b11 \
b11 2"
b11 7"
b11 ?"
b10 A
b11 0"
b1100000000000000000000 -"
b111 ."
b100000000110 1"
b100000000010 /"
b1000 #
b1000 J
b1000 W
b0 ]
b0 $"
b11 P
b11 I"
b111 N
b111 J"
b110000000000111 ,"
b100 S
b100 ;"
b1100000000001110010011 L
b1100000000001110010011 !
b1100000000001110010011 D
b1100000000001110010011 K
b100 +
b100 E
b100 j
b100 3"
b100 9"
1K"
1"
1$
0&
0,
#1370000
0K"
0"
0$
b1 0
1&
1,
#1380000
b1001111 Q"
b1001111 S"
b110 R"
#1470000
1v
0{
1s
b1000 g
b1000 q
b1000 )"
b0 h
b0 *"
b0 B"
b11111111111111111111111111111101 x
b11 e
b11 k
b11 t
b11 }
b11 D"
b1001100 `
b1001100 >"
b1001100 G"
b10011 =
b10011 <
b1001100 *
b1001100 7
b1001100 F
b1001100 d
b1001100 r
b1001100 <"
b10000000000000000000000001001100 z
b1001100 y
b1001111000 !"
b11000000110000001100000011 3
b11000000110000001100000011 ;
b10000000111 \
b10000000111 2"
b10000000111 7"
b10000000111 ?"
b11 A
b1001111 f
b1001111 l
b1001111 u
b1001111 ~
b1001111 5"
b10000000111 0"
b1000000011100110000000000000000 -"
b10000011100 ."
b10000011100 1"
b110000110000000110 /"
b1100 #
b1100 J
b1100 W
b110011 V
b110011 &"
b100000 ]
b100000 $"
b1001111 b
b1001111 4"
b1001111 :"
b1001111 E"
b110 Q
b110 H"
b11 )
b11 5
b11 G
b11 a
b11 C"
b11 F"
b111 P
b111 I"
b11100 N
b11100 J"
b100000001110011000011100 ,"
b1000 S
b1000 ;"
b1000000011100110000111000110011 L
b1000000011100110000111000110011 !
b1000000011100110000111000110011 D
b1000000011100110000111000110011 K
b1000 +
b1000 E
b1000 j
b1000 3"
b1000 9"
1K"
1"
1$
0&
0,
#1570000
0K"
0"
0$
b10 0
1&
1,
#1580000
b11 Q"
b11 S"
b111 R"
#1670000
1M
1{
b1001 !"
b11 `
b11 >"
b11 G"
b0 =
b0 <
1|
b11 *
b11 7
b11 F
b11 d
b11 r
b11 <"
b111 g
b111 q
b111 )"
b110000000000000011 3
b110000000000000011 ;
b111 \
b111 2"
b111 7"
b111 ?"
b100 A
b111 0"
b11100110111000000000000 -"
b11100 ."
b11100 1"
b110111100000000110 /"
b10000 #
b10000 J
b10000 W
b111 '
b111 2
b111 I
b111 Y
b111 %"
b111 ^
b111 #"
b0 ]
b0 $"
b1110011011111100 ,"
b1100 S
b1100 ;"
b11100110111111000110011 L
b11100110111111000110011 !
b11100110111111000110011 D
b11100110111111000110011 K
b1100 +
b1100 E
b1100 j
b1100 3"
b1100 9"
1K"
1"
1$
0&
0,
#1770000
0K"
0"
0$
b11 0
1&
1,
#1780000
b1001100 Q"
b1001100 S"
b11100 R"
#1870000
b1010010 z
0v
b1010010 y
b11 x
b1001111000 !"
0s
b1001111000 `
b1001111000 >"
b1001111000 G"
b10011110 =
b10011110 <
0|
b1001111000 *
b1001111000 7
b1001111000 F
b1001111000 d
b1001111000 r
b1001111000 <"
b1 g
b1 q
b1 )"
b101 A
b11100110001000000000000 -"
b110001100000000110 /"
b10100 #
b10100 J
b10100 W
b1 '
b1 2
b1 I
b1 Y
b1 %"
b1 ^
b1 #"
b1110011000111100 ,"
b10000 S
b10000 ;"
b11100110001111000110011 L
b11100110001111000110011 !
b11100110001111000110011 D
b11100110001111000110011 K
b10000 +
b10000 E
b10000 j
b10000 3"
b10000 9"
1K"
1"
1$
0&
0,
#1970000
0K"
0"
0$
b100 0
1&
1,
#1980000
b11 Q"
b11 S"
#2070000
b10000000000000000000000001001100 z
1v
b1001100 y
b11111111111111111111111111111101 x
1s
b0 `
b0 >"
b0 G"
b0 =
b0 <
b0 *
b0 7
b0 F
b0 d
b0 r
b0 <"
0M
b10 g
b10 q
b10 )"
b11 3
b11 ;
b110 A
b11100110010000000000000 -"
b110010100000000110 /"
b11000 #
b11000 J
b11000 W
b10 '
b10 2
b10 I
b10 Y
b10 %"
b10 ^
b10 #"
b1110011001011100 ,"
b10100 S
b10100 ;"
b11100110010111000110011 L
b11100110010111000110011 !
b11100110010111000110011 D
b11100110010111000110011 K
b10100 +
b10100 E
b10100 j
b10100 3"
b10100 9"
1K"
1"
1$
0&
0,
#2170000
0K"
0"
0$
b101 0
1&
1,
#2180000
b1001111000 Q"
b1001111000 S"
#2270000
b1 `
b1 >"
b1 G"
b1 *
b1 7
b1 F
b1 d
b1 r
b1 <"
1[
1n
1p
b1111111111111111111111110110100 z
0v
b11111111111111111111111110110100 y
b11111111111111111111111110110001 x
b11000000000000000 !"
b1001111 e
b1001111 k
b1001111 t
b1001111 }
b1001111 D"
b1001111 3
b1001111 ;
b110 \
b110 2"
b110 7"
b110 ?"
b111 A
b11 f
b11 l
b11 u
b11 ~
b11 5"
b110 0"
b11000111010000000000000 -"
b111010000000000110 /"
b11100 #
b11100 J
b11100 W
b11 b
b11 4"
b11 :"
b11 E"
b111 Q
b111 H"
b1001111 )
b1001111 5
b1001111 G
b1001111 a
b1001111 C"
b1001111 F"
b110 P
b110 I"
b1100011101011100 ,"
b11000 S
b11000 ;"
b11000111010111000110011 L
b11000111010111000110011 !
b11000111010111000110011 D
b11000111010111000110011 K
b11000 +
b11000 E
b11000 j
b11000 3"
b11000 9"
1K"
1"
1$
0&
0,
#2370000
0K"
0"
0$
b110 0
1&
1,
#2380000
b0 Q"
b0 S"
#2470000
0n
0p
b1010010 z
b1010010 y
b1001111 x
b0 !"
0s
b1001100 `
b1001100 >"
b1001100 G"
b10011 =
b10011 <
1|
0[
1M
b1001100 *
b1001100 7
b1001100 F
b1001100 d
b1001100 r
b1001100 <"
b100 g
b100 q
b100 )"
b1001111010011110100111101001111 3
b1001111010011110100111101001111 ;
b1000 A
b0xxxxxxxx (
b0xxxxxxxx 8
b0xxxxxxxx H
b0xxxxxxxx ="
b11000111100000000000000 -"
b111100000000000110 /"
b100000 #
b100000 J
b100000 W
b100 '
b100 2
b100 I
b100 Y
b100 %"
b100 ^
b100 #"
b1100011110011100 ,"
b11100 S
b11100 ;"
b11000111100111000110011 L
b11000111100111000110011 !
b11000111100111000110011 D
b11000111100111000110011 K
b11100 +
b11100 E
b11100 j
b11100 3"
b11100 9"
1K"
1"
1$
0&
0,
#2570000
0K"
0"
0$
b111 0
1&
1,
#2580000
b1 Q"
b1 S"
#2670000
b1001 `
b1001 >"
b1001 G"
b10 =
b10 <
b1001 *
b1001 7
b1001 F
b1001 d
b1001 r
b1001 <"
b101 g
b101 q
b101 )"
b11 x
b1001 !"
b11 e
b11 k
b11 t
b11 }
b11 D"
b110000000000000011 3
b110000000000000011 ;
b111 \
b111 2"
b111 7"
b111 ?"
b1001 A
b0xxxxxxxxxxxxxxxx (
b0xxxxxxxxxxxxxxxx 8
b0xxxxxxxxxxxxxxxx H
b0xxxxxxxxxxxxxxxx ="
b1001111 f
b1001111 l
b1001111 u
b1001111 ~
b1001111 5"
b111 0"
b11100110101000000000000 -"
b110101100000000110 /"
b100100 #
b100100 J
b100100 W
b101 '
b101 2
b101 I
b101 Y
b101 %"
b101 ^
b101 #"
b1001111 b
b1001111 4"
b1001111 :"
b1001111 E"
b110 Q
b110 H"
b11 )
b11 5
b11 G
b11 a
b11 C"
b11 F"
b111 P
b111 I"
b1110011010111100 ,"
b100000 S
b100000 ;"
b11100110101111000110011 L
b11100110101111000110011 !
b11100110101111000110011 D
b11100110101111000110011 K
b100000 +
b100000 E
b100000 j
b100000 3"
b100000 9"
1K"
1"
1$
0&
0,
#2770000
0K"
0"
0$
b1000 0
1&
1,
#2780000
b1001100 Q"
b1001100 S"
#2870000
b10000000000000000000000001001100 z
1v
b1001100 y
b11111111111111111111111111111101 x
1s
b1001111 `
b1001111 >"
b1001111 G"
b10011 =
b10011 <
b1001111 *
b1001111 7
b1001111 F
b1001111 d
b1001111 r
b1001111 <"
b110 g
b110 q
b110 )"
b11 3
b11 ;
b1010 A
bx (
bx 8
bx H
bx ="
b11100110110000000000000 -"
b110110100000000110 /"
b101000 #
b101000 J
b101000 W
b110 '
b110 2
b110 I
b110 Y
b110 %"
b110 ^
b110 #"
b1110011011011100 ,"
b100100 S
b100100 ;"
b11100110110111000110011 L
b11100110110111000110011 !
b11100110110111000110011 D
b11100110110111000110011 K
b100100 +
b100100 E
b100100 j
b100100 3"
b100100 9"
1K"
1"
1$
0&
0,
#2970000
0K"
0"
0$
b1001 0
1&
1,
#2980000
b1001 Q"
b1001 S"
#3070000
0s
b1 h
b1 *"
b1 B"
1{
0|
b0 g
b0 q
b0 )"
b11111111111111111111111110110001 `
b11111111111111111111111110110001 >"
b11111111111111111111111110110001 G"
b111111111101100 =
b111111111101100 <
1M
b11111111111111111111111110110001 *
b11111111111111111111111110110001 7
b11111111111111111111111110110001 F
b11111111111111111111111110110001 d
b11111111111111111111111110110001 r
b11111111111111111111111110110001 <"
1n
0m
0o
0p
0w
b1111111111111111111111110110001 z
0v
b11111111111111111111111110110001 y
b11111111111111111111111110110001 x
b0 !"
b11111111111111111111111110110001 e
b11111111111111111111111110110001 k
b11111111111111111111111110110001 t
b11111111111111111111111110110001 }
b11111111111111111111111110110001 D"
bx 3
bx ;
b11111111111111111111111110110001 \
b11111111111111111111111110110001 2"
b11111111111111111111111110110001 7"
b11111111111111111111111110110001 ?"
b1011 A
b0 f
b0 l
b0 u
b0 ~
b0 5"
b11111111111111111111111110110001 0"
b11111011000100000000000000000000 -"
b11111111111111111111111110100110 ."
b11111111111111111111011110100110 1"
b11111111111100000000111110110000 /"
b101100 #
b101100 J
b101100 W
b10011 V
b10011 &"
b0 '
b0 2
b0 I
b0 Y
b0 %"
b0 ^
b0 #"
b1111101 ]
b1111101 $"
b0 b
b0 4"
b0 :"
b0 E"
b0 Q
b0 H"
bx )
bx 5
bx G
bx a
bx C"
bx F"
b10001 P
b10001 I"
b110 N
b110 J"
b1111101100010000000000110 ,"
b101000 S
b101000 ;"
b11111011000100000000001100010011 L
b11111011000100000000001100010011 !
b11111011000100000000001100010011 D
b11111011000100000000001100010011 K
b101000 +
b101000 E
b101000 j
b101000 3"
b101000 9"
1K"
1"
1$
0&
0,
#3170000
0K"
0"
0$
b1010 0
1&
1,
#3180000
b1001111 Q"
b1001111 S"
#3270000
b0 h
b0 *"
b0 B"
b11 x
b11 e
b11 k
b11 t
b11 }
b11 D"
b11111111111111111111111110110100 `
b11111111111111111111111110110100 >"
b11111111111111111111111110110100 G"
b111111111101101 =
b111111111101101 <
b11111111111111111111111110110100 *
b11111111111111111111111110110100 7
b11111111111111111111111110110100 F
b11111111111111111111111110110100 d
b11111111111111111111111110110100 r
b11111111111111111111111110110100 <"
0p
b1111111111111111111111110110100 z
0v
b11111111111111111111111110110100 y
b11111111111111111111110110001000 !"
b11000000110000001100000011 3
b11000000110000001100000011 ;
b111 \
b111 2"
b111 7"
b111 ?"
b1100 A
b11111111111111111111111110110001 f
b11111111111111111111111110110001 l
b11111111111111111111111110110001 u
b11111111111111111111111110110001 ~
b11111111111111111111111110110001 5"
b111 0"
b11100110000000000000000 -"
b11100 ."
b11100 1"
b110000100000000110 /"
b110000 #
b110000 J
b110000 W
b110011 V
b110011 &"
b0 ]
b0 $"
b11111111111111111111111110110001 b
b11111111111111111111111110110001 4"
b11111111111111111111111110110001 :"
b11111111111111111111111110110001 E"
b110 Q
b110 H"
b11 )
b11 5
b11 G
b11 a
b11 C"
b11 F"
b111 P
b111 I"
b11100 N
b11100 J"
b1110011000011100 ,"
b101100 S
b101100 ;"
b11100110000111000110011 L
b11100110000111000110011 !
b11100110000111000110011 D
b11100110000111000110011 K
b101100 +
b101100 E
b101100 j
b101100 3"
b101100 9"
1K"
1"
1$
0&
0,
#3370000
0K"
0"
0$
b1011 0
1&
1,
#3380000
b11111111111111111111111110110001 Q"
b11111111111111111111111110110001 S"
b110 R"
#3470000
b11111111111111111111111110101110 z
1v
b11111111111111111111111110101110 y
b11111111111111111111111111111101 x
0{
b11111111111111111111111111110110 !"
1s
b11111111111111111111111111110110 `
b11111111111111111111111111110110 >"
b11111111111111111111111111110110 G"
b111111111111101 =
b111111111111101 <
1|
b11111111111111111111111111110110 *
b11111111111111111111111111110110 7
b11111111111111111111111111110110 F
b11111111111111111111111111110110 d
b11111111111111111111111111110110 r
b11111111111111111111111111110110 <"
b1101 g
b1101 q
b1101 )"
b110000000000000011 3
b110000000000000011 ;
b10000000111 \
b10000000111 2"
b10000000111 7"
b10000000111 ?"
b1101 A
b0xxxxxxxxxxxxxxxx (
b0xxxxxxxxxxxxxxxx 8
b0xxxxxxxxxxxxxxxx H
b0xxxxxxxxxxxxxxxx ="
b10000000111 0"
b1000000011100110101000000000000 -"
b10000011100 ."
b10000011100 1"
b110101110000000110 /"
b110100 #
b110100 J
b110100 W
b101 '
b101 2
b101 I
b101 Y
b101 %"
b101 ^
b101 #"
b100000 ]
b100000 $"
b100000001110011010111100 ,"
b110000 S
b110000 ;"
b1000000011100110101111000110011 L
b1000000011100110101111000110011 !
b1000000011100110101111000110011 D
b1000000011100110101111000110011 K
b110000 +
b110000 E
b110000 j
b110000 3"
b110000 9"
1K"
1"
1$
0&
0,
#3570000
0K"
0"
0$
b1100 0
1&
1,
#3580000
b11111111111111111111111110110100 Q"
b11111111111111111111111110110100 S"
b11100 R"
#3670000
b11111111111111111111111110110 `
b11111111111111111111111110110 >"
b11111111111111111111111110110 G"
b11111111111111111111111110110 *
b11111111111111111111111110110 7
b11111111111111111111111110110 F
b11111111111111111111111110110 d
b11111111111111111111111110110 r
b11111111111111111111111110110 <"
b11111111111111111111111110110 !"
b1111111111111111111111110110100 z
0v
b11111111111111111111111110110100 y
b11 x
1{
0s
b101 g
b101 q
b101 )"
b111 \
b111 2"
b111 7"
b111 ?"
b1110 A
b111 0"
b11100110101000000000000 -"
b11100 ."
b11100 1"
b110101100000000110 /"
b111000 #
b111000 J
b111000 W
b0 ]
b0 $"
b1110011010111100 ,"
b110100 S
b110100 ;"
b11100110101111000110011 L
b11100110101111000110011 !
b11100110101111000110011 D
b11100110101111000110011 K
b110100 +
b110100 E
b110100 j
b110100 3"
b110100 9"
1K"
1"
1$
0&
0,
#3770000
0K"
0"
0$
b1101 0
1&
1,
#3780000
b11111111111111111111111111110110 Q"
b11111111111111111111111111110110 S"
