Verilog/EXP11/Test/rv32is_wave.vcd
$date
	Mon Nov 15 14:16:15 2021
$end
$version
	Icarus Verilog
$end
$timescale
	10ns
$end
$scope module rv32is_test $end
$var wire 1 ! imemclk $end
$var wire 32 " imemaddr [31:0] $end
$var wire 1 # dmemwrclk $end
$var wire 1 $ dmemwe $end
$var wire 1 % dmemrdclk $end
$var wire 3 & dmemop [2:0] $end
$var wire 32 ' dmemdatain [31:0] $end
$var wire 32 ( dmemaddr [31:0] $end
$var wire 32 ) dbgdata [31:0] $end
$var reg 1 * clock $end
$var reg 32 + dmemdataout [31:0] $end
$var reg 32 , imemdataout [31:0] $end
$var reg 1 - reset $end
$scope module __rv32is $end
$var wire 1 * clock $end
$var wire 32 . dbgdata [31:0] $end
$var wire 32 / dmemaddr [31:0] $end
$var wire 32 0 dmemdatain [31:0] $end
$var wire 32 1 dmemdataout [31:0] $end
$var wire 3 2 dmemop [2:0] $end
$var wire 1 % dmemrdclk $end
$var wire 1 $ dmemwe $end
$var wire 1 # dmemwrclk $end
$var wire 32 3 imemaddr [31:0] $end
$var wire 1 ! imemclk $end
$var wire 32 4 imemdataout [31:0] $end
$var wire 32 5 instr [31:0] $end
$var wire 1 - reset $end
$var wire 1 6 zero $end
$var wire 5 7 rw [4:0] $end
$var wire 1 8 regwr $end
$var wire 5 9 rb [4:0] $end
$var wire 5 : ra [4:0] $end
$var wire 1 ; pcBsrc $end
$var wire 32 < pcB [31:0] $end
$var wire 1 = pcAsrc $end
$var wire 32 > pcA [31:0] $end
$var wire 7 ? op [6:0] $end
$var wire 32 @ nxtpc [31:0] $end
$var wire 1 A memwr $end
$var wire 3 B memop [2:0] $end
$var wire 1 C mem2reg $end
$var wire 1 D less $end
$var wire 32 E imm [31:0] $end
$var wire 7 F func7 [6:0] $end
$var wire 3 G func3 [2:0] $end
$var wire 3 H extop [2:0] $end
$var wire 32 I busW [31:0] $end
$var wire 32 J busB [31:0] $end
$var wire 32 K busA [31:0] $end
$var wire 3 L branch [2:0] $end
$var wire 32 M aluresult [31:0] $end
$var wire 32 N alub [31:0] $end
$var wire 32 O alua [31:0] $end
$var wire 4 P ALUctr [3:0] $end
$var wire 2 Q ALUBsrc [1:0] $end
$var wire 1 R ALUAsrc $end
$var reg 32 S pc [31:0] $end
$scope module alu $end
$var wire 32 T datab [31:0] $end
$var wire 32 U dataa [31:0] $end
$var wire 1 V ZF $end
$var wire 1 W SF $end
$var wire 1 X OF $end
$var wire 1 Y CF $end
$var wire 4 Z ALUctr [3:0] $end
$var reg 32 [ aluresult [31:0] $end
$var reg 1 D less $end
$var reg 1 6 zero $end
$scope module adder $end
$var wire 1 \ add_or_sub $end
$var wire 32 ] datab [31:0] $end
$var wire 32 ^ dataa [31:0] $end
$var reg 1 Y CF $end
$var reg 1 X OF $end
$var reg 1 W SF $end
$var reg 1 V ZF $end
$var reg 1 _ carry_n $end
$var reg 1 ` carry_n_1 $end
$var reg 32 a datab_xor [31:0] $end
$var reg 32 b result [31:0] $end
$var reg 32 c result_tmp [31:0] $end
$upscope $end
$scope module shifter $end
$var wire 1 d a_or_h $end
$var wire 1 e l_or_r $end
$var wire 32 f datab [31:0] $end
$var wire 32 g dataa [31:0] $end
$var reg 32 h result [31:0] $end
$upscope $end
$upscope $end
$scope module branchcond $end
$var wire 3 i branch [2:0] $end
$var wire 1 D less $end
$var wire 1 = pcAsrc $end
$var wire 1 ; pcBsrc $end
$var wire 1 6 zero $end
$upscope $end
$scope module contrgen $end
$var wire 1 R ALUAsrc $end
$var wire 3 j func3 [2:0] $end
$var wire 7 k func7 [6:0] $end
$var wire 3 l memop [2:0] $end
$var wire 1 A memwr $end
$var wire 7 m op [6:0] $end
$var wire 1 8 regwr $end
$var wire 1 C mem2reg $end
$var wire 3 n extop [2:0] $end
$var wire 3 o branch [2:0] $end
$var wire 4 p ALUctr [3:0] $end
$var wire 2 q ALUBsrc [1:0] $end
$upscope $end
$scope module immgen $end
$var wire 3 r extop [2:0] $end
$var wire 25 s instr_31_7 [24:0] $end
$var wire 32 t immU [31:0] $end
$var wire 32 u immS [31:0] $end
$var wire 32 v immJ [31:0] $end
$var wire 32 w immI [31:0] $end
$var wire 32 x immB [31:0] $end
$var wire 32 y imm [31:0] $end
$upscope $end
$scope module mux2_ALUAsrc $end
$var wire 32 z input1 [31:0] $end
$var wire 1 R selector $end
$var wire 32 { input0 [31:0] $end
$var wire 32 | data [31:0] $end
$upscope $end
$scope module mux2_pcAsrc $end
$var wire 32 } input0 [31:0] $end
$var wire 32 ~ input1 [31:0] $end
$var wire 1 = selector $end
$var wire 32 !" data [31:0] $end
$upscope $end
$scope module mux2_pcBsrc $end
$var wire 32 "" input0 [31:0] $end
$var wire 1 ; selector $end
$var wire 32 #" input1 [31:0] $end
$var wire 32 $" data [31:0] $end
$upscope $end
$scope module mux2_regwr $end
$var wire 32 %" input0 [31:0] $end
$var wire 32 &" input1 [31:0] $end
$var wire 1 C selector $end
$var wire 32 '" data [31:0] $end
$upscope $end
$scope module mux4_ALUBsrc $end
$var wire 32 (" input1 [31:0] $end
$var wire 32 )" input2 [31:0] $end
$var wire 32 *" input3 [31:0] $end
$var wire 2 +" selector [1:0] $end
$var wire 32 ," input0 [31:0] $end
$var wire 32 -" data [31:0] $end
$upscope $end
$scope module myregfile $end
$var wire 32 ." busA [31:0] $end
$var wire 32 /" busB [31:0] $end
$var wire 32 0" busW [31:0] $end
$var wire 5 1" ra [4:0] $end
$var wire 5 2" rb [4:0] $end
$var wire 1 8 regwr $end
$var wire 5 3" rw [4:0] $end
$var wire 1 * wrclk $end
$upscope $end
$upscope $end
$upscope $end
$enddefinitions $end
#0
$dumpvars
bx 3"
bx 2"
bx 1"
bx 0"
bx /"
bx ."
bx -"
bx ,"
bx +"
b0 *"
b100 )"
bx ("
bx '"
b0 &"
bx %"
b0 $"
bx #"
b0 ""
b100 !"
bx ~
b100 }
bx |
bx {
b0 z
bx y
bx0 x
bx w
bx0 v
bx u
bx000000000000 t
bx s
bx r
bx q
bx p
bx o
bx n
bx m
bx l
bx k
bx j
b0 i
bx h
bx g
bx f
xe
xd
bx c
bx b
bx a
x`
x_
bx ^
bx ]
x\
bx [
bx Z
xY
xX
xW
xV
bx U
bx T
b0 S
xR
bx Q
bx P
bx O
bx N
bx M
bx L
bx K
bx J
bx I
bx H
bx G
bx F
bx E
xD
xC
bx B
xA
b100 @
bx ?
b100 >
0=
b0 <
0;
bx :
bx 9
x8
bx 7
x6
bx 5
bx 4
b100 3
bx 2
b0 1
bx 0
bx /
b0 .
1-
bx ,
b0 +
1*
b0 )
bx (
bx '
bx &
1%
x$
0#
b100 "
0!
$end
#10
0-
#20
1!
1#
0%
0*
#40
b1100100 I
b1100100 '"
b1100100 0"
16
b1100100 (
b1100100 /
b1100100 M
b1100100 [
b1100100 %"
0W
0V
0X
0Y
0`
b1100100 c
0_
b1100100 b
b1100100 a
b0 h
b1100100 N
b1100100 T
b1100100 ]
b1100100 f
b1100100 -"
0\
0d
0$
0A
0e
0R
b0 P
b0 Z
b0 p
b0 L
b0 o
b0 H
b0 n
b0 r
08
b1 Q
b1 q
b1 +"
0C
0D
b1100100 E
b1100100 y
b1100100 ~
b1100100 ("
b1000 "
b1000 3
b1000 @
b100 <
b100 $"
b0 O
b0 U
b0 ^
b0 g
b0 |
b1100100 w
b110010000000000000000000000 t
b1100110 u
b1100110 x
b1100100 v
0!
0#
b100 )
b100 .
b100 S
b100 z
b100 ""
b10011 ?
b10011 m
b0 &
b0 2
b0 B
b0 l
b0 G
b0 j
b11 F
b11 k
b0 K
b0 {
b0 #"
b0 ."
b0 :
b0 1"
b100 9
b100 2"
b110 7
b110 3"
b11001000000000000110 s
1%
1*
b110010000000000001100010011 5
b110010000000000001100010011 ,
b110010000000000001100010011 4
#60
1!
1#
0%
0*
#80
b10100 I
b10100 '"
b10100 0"
b10100 (
b10100 /
b10100 M
b10100 [
b10100 %"
b10100 c
b10100 b
b10100 a
b10100 N
b10100 T
b10100 ]
b10100 f
b10100 -"
b10100 E
b10100 y
b10100 ~
b10100 ("
b1100 "
b1100 3
b1100 @
b1000 <
b1000 $"
b10100 w
b1010000000000000000000000 t
b111 u
b100000000110 x
b10100 v
0!
0#
b1000 )
b1000 .
b1000 S
b1000 z
b1000 ""
b0 F
b0 k
b10100 9
b10100 2"
b111 7
b111 3"
b101000000000000111 s
1%
1*
b1010000000000001110010011 5
b1010000000000001110010011 ,
b1010000000000001110010011 4
#100
1!
1#
0%
0*
#120
b0 Q
b0 q
b0 +"
bx a
bx N
bx T
bx ]
bx f
bx -"
bx I
bx '"
bx 0"
x6
bx (
bx /
bx M
bx [
bx %"
xW
xV
xX
xY
x`
bx c
x_
bx b
bx h
b111 E
b111 y
b111 ~
b111 ("
b10000 "
b10000 3
b10000 @
b1100 <
b1100 $"
bx O
bx U
bx ^
bx g
bx |
b111 w
b11100110000000000000000 t
b11100 u
b11100 x
b110000100000000110 v
0!
0#
b1100 )
b1100 .
b1100 S
b1100 z
b1100 ""
b110011 ?
b110011 m
bx K
bx {
bx #"
bx ."
b110 :
b110 1"
b111 9
b111 2"
b11100 7
b11100 3"
b1110011000011100 s
1%
1*
b11100110000111000110011 5
b11100110000111000110011 ,
b11100110000111000110011 4
#140
1!
1#
0%
0*
#160
06
0W
1V
0X
0Y
0`
b0 c
0_
b0 b
b0 a
b0 h
b0 N
b0 T
b0 ]
b0 f
b0 -"
b1 Q
b1 q
b1 +"
0\
b0 I
b0 '"
b0 0"
1$
1A
b0 (
b0 /
b0 M
b0 [
b0 %"
0D
b0 P
b0 Z
b0 p
b10 H
b10 n
b10 r
18
b0 E
b0 y
b0 ~
b0 ("
b10100 "
b10100 3
b10100 @
b10000 <
b10000 $"
b0 O
b0 U
b0 ^
b0 g
b0 |
b110 w
b11000000010000000000000 t
b0 u
b0 x
b10000000000110 v
0!
0#
b10000 )
b10000 .
b10000 S
b10000 z
b10000 ""
b100011 ?
b100011 m
b10 &
b10 2
b10 B
b10 l
b10 G
b10 j
b0 K
b0 {
b0 #"
b0 ."
b0 :
b0 1"
b110 9
b110 2"
b0 7
b0 3"
b1100000001000000 s
1%
1*
b11000000010000000100011 5
b11000000010000000100011 ,
b11000000010000000100011 4
#180
1!
1#
0%
0*
#200
b11000 "
b11000 3
b11000 @
b10100 <
b10100 $"
b111 w
b11100000010000000000000 t
b10100000000110 v
0!
0#
b10100 )
b10100 .
b10100 S
b10100 z
b10100 ""
b111 9
b111 2"
b1110000001000000 s
1%
1*
b11100000010000000100011 5
b11100000010000000100011 ,
b11100000010000000100011 4
#220
1!
1#
0%
0*
#240
b1100100 I
b1100100 '"
b1100100 0"
16
b1100100 (
b1100100 /
b1100100 M
b1100100 [
b1100100 %"
0V
b1100100 c
b1100100 b
b1100100 a
b1100100 N
b1100100 T
b1100100 ]
b1100100 f
b1100100 -"
0$
0A
b1100100 E
b1100100 y
b1100100 ~
b1100100 ("
b0 H
b0 n
b0 r
08
b11100 "
b11100 3
b11100 @
b11000 <
b11000 $"
b1100100 w
b110010000000000000000000000 t
b1100110 u
b1100110 x
b1100100 v
0!
0#
b11000 )
b11000 .
b11000 S
b11000 z
b11000 ""
b10011 ?
b10011 m
b0 &
b0 2
b0 B
b0 l
b0 G
b0 j
b11 F
b11 k
b100 9
b100 2"
b110 7
b110 3"
b11001000000000000110 s
1%
1*
b110010000000000001100010011 5
b110010000000000001100010011 ,
b110010000000000001100010011 4
#260
1!
1#
0%
0*
#280
b10100 I
b10100 '"
b10100 0"
b10100 (
b10100 /
b10100 M
b10100 [
b10100 %"
b10100 c
b10100 b
b10100 a
b10100 N
b10100 T
b10100 ]
b10100 f
b10100 -"
b10100 E
b10100 y
b10100 ~
b10100 ("
b100000 "
b100000 3
b100000 @
b11100 <
b11100 $"
b10100 w
b1010000000000000000000000 t
b111 u
b100000000110 x
b10100 v
0!
0#
b11100 )
b11100 .
b11100 S
b11100 z
b11100 ""
b0 F
b0 k
b10100 9
b10100 2"
b111 7
b111 3"
b101000000000000111 s
1%
1*
b1010000000000001110010011 5
b1010000000000001110010011 ,
b1010000000000001110010011 4
#300
1!
1#
0%
0*
#320
x6
xW
xV
xX
xY
x`
x_
bx h
b0 Q
b0 q
b0 +"
bx I
bx '"
bx 0"
bx (
bx /
bx M
bx [
bx %"
bx c
bx b
bx a
bx N
bx T
bx ]
bx f
bx -"
b111 E
b111 y
b111 ~
b111 ("
b100100 "
b100100 3
b100100 @
b100000 <
b100000 $"
b111 w
b11100110000000000000000 t
b11100 u
b11100 x
b110000100000000110 v
0!
0#
b100000 )
b100000 .
b100000 S
b100000 z
b100000 ""
b110011 ?
b110011 m
b110 :
b110 1"
b111 9
b111 2"
b11100 7
b11100 3"
b1110011000011100 s
1%
1*
b11100110000111000110011 5
b11100110000111000110011 ,
b11100110000111000110011 4
#340
1!
1#
0%
0*
#360
b1 Q
b1 q
b1 +"
0\
1$
1A
b0 P
b0 Z
b0 p
b0 I
b0 '"
b0 0"
b10 H
b10 n
b10 r
18
06
b0 (
b0 /
b0 M
b0 [
b0 %"
0W
1V
0X
0Y
0`
b0 c
0_
b0 b
b0 a
b0 h
b0 N
b0 T
b0 ]
b0 f
b0 -"
b0 E
b0 y
b0 ~
b0 ("
b101000 "
b101000 3
b101000 @
b100100 <
b100100 $"
b110 w
b11000000010000000000000 t
b0 u
b0 x
b10000000000110 v
0!
0#
b100100 )
b100100 .
b100100 S
b100100 z
b100100 ""
b100011 ?
b100011 m
b10 &
b10 2
b10 B
b10 l
b10 G
b10 j
b0 :
b0 1"
b0 '
b0 0
b0 J
b0 ,"
b0 /"
b110 9
b110 2"
b0 7
b0 3"
b1100000001000000 s
1%
1*
b11000000010000000100011 5
b11000000010000000100011 ,
b11000000010000000100011 4
#380
1!
1#
0%
0*
#400
b101100 "
b101100 3
b101100 @
b101000 <
b101000 $"
b111 w
b11100000010000000000000 t
b10100000000110 v
0!
0#
b101000 )
b101000 .
b101000 S
b101000 z
b101000 ""
bx '
bx 0
bx J
bx ,"
bx /"
b111 9
b111 2"
b1110000001000000 s
1%
1*
b11100000010000000100011 5
b11100000010000000100011 ,
b11100000010000000100011 4
#420
1!
1#
0%
0*
#440
b1100100 I
b1100100 '"
b1100100 0"
16
b1100100 (
b1100100 /
b1100100 M
b1100100 [
b1100100 %"
0V
b1100100 c
b1100100 b
b1100100 a
b1100100 N
b1100100 T
b1100100 ]
b1100100 f
b1100100 -"
0$
0A
b1100100 E
b1100100 y
b1100100 ~
b1100100 ("
b0 H
b0 n
b0 r
08
b110000 "
b110000 3
b110000 @
b101100 <
b101100 $"
b1100100 w
b110010000000000000000000000 t
b1100110 u
b1100110 x
b1100100 v
0!
0#
b101100 )
b101100 .
b101100 S
b101100 z
b101100 ""
b10011 ?
b10011 m
b0 &
b0 2
b0 B
b0 l
b0 G
b0 j
b11 F
b11 k
b100 9
b100 2"
b110 7
b110 3"
b11001000000000000110 s
1%
1*
b110010000000000001100010011 5
b110010000000000001100010011 ,
b110010000000000001100010011 4
#460
1!
1#
0%
0*
#480
b10100 I
b10100 '"
b10100 0"
b10100 (
b10100 /
b10100 M
b10100 [
b10100 %"
b10100 c
b10100 b
b10100 a
b10100 N
b10100 T
b10100 ]
b10100 f
b10100 -"
b10100 E
b10100 y
b10100 ~
b10100 ("
b110100 "
b110100 3
b110100 @
b110000 <
b110000 $"
b10100 w
b1010000000000000000000000 t
b111 u
b100000000110 x
b10100 v
0!
0#
b110000 )
b110000 .
b110000 S
b110000 z
b110000 ""
b0 F
b0 k
b10100 9
b10100 2"
b111 7
b111 3"
b101000000000000111 s
1%
1*
b1010000000000001110010011 5
b1010000000000001110010011 ,
b1010000000000001110010011 4
#500
1!
1#
0%
0*
#520
x6
xW
xV
xX
xY
x`
x_
bx h
b0 Q
b0 q
b0 +"
bx I
bx '"
bx 0"
bx (
bx /
bx M
bx [
bx %"
bx c
bx b
bx a
bx N
bx T
bx ]
bx f
bx -"
b111 E
b111 y
b111 ~
b111 ("
b111000 "
b111000 3
b111000 @
b110100 <
b110100 $"
b111 w
b11100110000000000000000 t
b11100 u
b11100 x
b110000100000000110 v
0!
0#
b110100 )
b110100 .
b110100 S
b110100 z
b110100 ""
b110011 ?
b110011 m
b110 :
b110 1"
b111 9
b111 2"
b11100 7
b11100 3"
b1110011000011100 s
1%
1*
b11100110000111000110011 5
b11100110000111000110011 ,
b11100110000111000110011 4
#540
1!
1#
0%
0*
#560
b1 Q
b1 q
b1 +"
0\
1$
1A
b0 P
b0 Z
b0 p
b0 I
b0 '"
b0 0"
b10 H
b10 n
b10 r
18
06
b0 (
b0 /
b0 M
b0 [
b0 %"
0W
1V
0X
0Y
0`
b0 c
0_
b0 b
b0 a
b0 h
b0 N
b0 T
b0 ]
b0 f
b0 -"
b0 E
b0 y
b0 ~
b0 ("
b111100 "
b111100 3
b111100 @
b111000 <
b111000 $"
b110 w
b11000000010000000000000 t
b0 u
b0 x
b10000000000110 v
0!
0#
b111000 )
b111000 .
b111000 S
b111000 z
b111000 ""
b100011 ?
b100011 m
b10 &
b10 2
b10 B
b10 l
b10 G
b10 j
b0 :
b0 1"
b0 '
b0 0
b0 J
b0 ,"
b0 /"
b110 9
b110 2"
b0 7
b0 3"
b1100000001000000 s
1%
1*
b11000000010000000100011 5
b11000000010000000100011 ,
b11000000010000000100011 4
#580
1!
1#
0%
0*
#600
b1000000 "
b1000000 3
b1000000 @
b111100 <
b111100 $"
b111 w
b11100000010000000000000 t
b10100000000110 v
0!
0#
b111100 )
b111100 .
b111100 S
b111100 z
b111100 ""
bx '
bx 0
bx J
bx ,"
bx /"
b111 9
b111 2"
b1110000001000000 s
1%
1*
b11100000010000000100011 5
b11100000010000000100011 ,
b11100000010000000100011 4
#620
1!
1#
0%
0*
#640
b1100100 I
b1100100 '"
b1100100 0"
16
b1100100 (
b1100100 /
b1100100 M
b1100100 [
b1100100 %"
0V
b1100100 c
b1100100 b
b1100100 a
b1100100 N
b1100100 T
b1100100 ]
b1100100 f
b1100100 -"
0$
0A
b1100100 E
b1100100 y
b1100100 ~
b1100100 ("
b0 H
b0 n
b0 r
08
b1000100 "
b1000100 3
b1000100 @
b1000000 <
b1000000 $"
b1100100 w
b110010000000000000000000000 t
b1100110 u
b1100110 x
b1100100 v
0!
0#
b1000000 )
b1000000 .
b1000000 S
b1000000 z
b1000000 ""
b10011 ?
b10011 m
b0 &
b0 2
b0 B
b0 l
b0 G
b0 j
b11 F
b11 k
b100 9
b100 2"
b110 7
b110 3"
b11001000000000000110 s
1%
1*
b110010000000000001100010011 5
b110010000000000001100010011 ,
b110010000000000001100010011 4
#660
1!
1#
0%
0*
#680
b10100 I
b10100 '"
b10100 0"
b10100 (
b10100 /
b10100 M
b10100 [
b10100 %"
b10100 c
b10100 b
b10100 a
b10100 N
b10100 T
b10100 ]
b10100 f
b10100 -"
b10100 E
b10100 y
b10100 ~
b10100 ("
b1001000 "
b1001000 3
b1001000 @
b1000100 <
b1000100 $"
b10100 w
b1010000000000000000000000 t
b111 u
b100000000110 x
b10100 v
0!
0#
b1000100 )
b1000100 .
b1000100 S
b1000100 z
b1000100 ""
b0 F
b0 k
b10100 9
b10100 2"
b111 7
b111 3"
b101000000000000111 s
1%
1*
b1010000000000001110010011 5
b1010000000000001110010011 ,
b1010000000000001110010011 4
#700
1!
1#
0%
0*
#720
x6
xW
xV
xX
xY
x`
x_
bx h
b0 Q
b0 q
b0 +"
bx I
bx '"
bx 0"
bx (
bx /
bx M
bx [
bx %"
bx c
bx b
bx a
bx N
bx T
bx ]
bx f
bx -"
b111 E
b111 y
b111 ~
b111 ("
b1001100 "
b1001100 3
b1001100 @
b1001000 <
b1001000 $"
b111 w
b11100110000000000000000 t
b11100 u
b11100 x
b110000100000000110 v
0!
0#
b1001000 )
b1001000 .
b1001000 S
b1001000 z
b1001000 ""
b110011 ?
b110011 m
b110 :
b110 1"
b111 9
b111 2"
b11100 7
b11100 3"
b1110011000011100 s
1%
1*
b11100110000111000110011 5
b11100110000111000110011 ,
b11100110000111000110011 4
#740
1!
1#
0%
0*
#760
b1 Q
b1 q
b1 +"
0\
1$
1A
b0 P
b0 Z
b0 p
b0 I
b0 '"
b0 0"
b10 H
b10 n
b10 r
18
06
b0 (
b0 /
b0 M
b0 [
b0 %"
0W
1V
0X
0Y
0`
b0 c
0_
b0 b
b0 a
b0 h
b0 N
b0 T
b0 ]
b0 f
b0 -"
b0 E
b0 y
b0 ~
b0 ("
b1010000 "
b1010000 3
b1010000 @
b1001100 <
b1001100 $"
b110 w
b11000000010000000000000 t
b0 u
b0 x
b10000000000110 v
0!
0#
b1001100 )
b1001100 .
b1001100 S
b1001100 z
b1001100 ""
b100011 ?
b100011 m
b10 &
b10 2
b10 B
b10 l
b10 G
b10 j
b0 :
b0 1"
b0 '
b0 0
b0 J
b0 ,"
b0 /"
b110 9
b110 2"
b0 7
b0 3"
b1100000001000000 s
1%
1*
b11000000010000000100011 5
b11000000010000000100011 ,
b11000000010000000100011 4
#780
1!
1#
0%
0*
#800
b1010100 "
b1010100 3
b1010100 @
b1010000 <
b1010000 $"
b111 w
b11100000010000000000000 t
b10100000000110 v
0!
0#
b1010000 )
b1010000 .
b1010000 S
b1010000 z
b1010000 ""
bx '
bx 0
bx J
bx ,"
bx /"
b111 9
b111 2"
b1110000001000000 s
1%
1*
b11100000010000000100011 5
b11100000010000000100011 ,
b11100000010000000100011 4
#820
1!
1#
0%
0*
#840
b1100100 I
b1100100 '"
b1100100 0"
16
b1100100 (
b1100100 /
b1100100 M
b1100100 [
b1100100 %"
0V
b1100100 c
b1100100 b
b1100100 a
b1100100 N
b1100100 T
b1100100 ]
b1100100 f
b1100100 -"
0$
0A
b1100100 E
b1100100 y
b1100100 ~
b1100100 ("
b0 H
b0 n
b0 r
08
b1011000 "
b1011000 3
b1011000 @
b1010100 <
b1010100 $"
b1100100 w
b110010000000000000000000000 t
b1100110 u
b1100110 x
b1100100 v
0!
0#
b1010100 )
b1010100 .
b1010100 S
b1010100 z
b1010100 ""
b10011 ?
b10011 m
b0 &
b0 2
b0 B
b0 l
b0 G
b0 j
b11 F
b11 k
b100 9
b100 2"
b110 7
b110 3"
b11001000000000000110 s
1%
1*
b110010000000000001100010011 5
b110010000000000001100010011 ,
b110010000000000001100010011 4
#860
1!
1#
0%
0*
#880
b10100 I
b10100 '"
b10100 0"
b10100 (
b10100 /
b10100 M
b10100 [
b10100 %"
b10100 c
b10100 b
b10100 a
b10100 N
b10100 T
b10100 ]
b10100 f
b10100 -"
b10100 E
b10100 y
b10100 ~
b10100 ("
b1011100 "
b1011100 3
b1011100 @
b1011000 <
b1011000 $"
b10100 w
b1010000000000000000000000 t
b111 u
b100000000110 x
b10100 v
0!
0#
b1011000 )
b1011000 .
b1011000 S
b1011000 z
b1011000 ""
b0 F
b0 k
b10100 9
b10100 2"
b111 7
b111 3"
b101000000000000111 s
1%
1*
b1010000000000001110010011 5
b1010000000000001110010011 ,
b1010000000000001110010011 4
#900
1!
1#
0%
0*
#920
x6
xW
xV
xX
xY
x`
x_
bx h
b0 Q
b0 q
b0 +"
bx I
bx '"
bx 0"
bx (
bx /
bx M
bx [
bx %"
bx c
bx b
bx a
bx N
bx T
bx ]
bx f
bx -"
b111 E
b111 y
b111 ~
b111 ("
b1100000 "
b1100000 3
b1100000 @
b1011100 <
b1011100 $"
b111 w
b11100110000000000000000 t
b11100 u
b11100 x
b110000100000000110 v
0!
0#
b1011100 )
b1011100 .
b1011100 S
b1011100 z
b1011100 ""
b110011 ?
b110011 m
b110 :
b110 1"
b111 9
b111 2"
b11100 7
b11100 3"
b1110011000011100 s
1%
1*
b11100110000111000110011 5
b11100110000111000110011 ,
b11100110000111000110011 4
#940
1!
1#
0%
0*
#960
b1 Q
b1 q
b1 +"
0\
1$
1A
b0 P
b0 Z
b0 p
b0 I
b0 '"
b0 0"
b10 H
b10 n
b10 r
18
06
b0 (
b0 /
b0 M
b0 [
b0 %"
0W
1V
0X
0Y
0`
b0 c
0_
b0 b
b0 a
b0 h
b0 N
b0 T
b0 ]
b0 f
b0 -"
b0 E
b0 y
b0 ~
b0 ("
b1100100 "
b1100100 3
b1100100 @
b1100000 <
b1100000 $"
b110 w
b11000000010000000000000 t
b0 u
b0 x
b10000000000110 v
0!
0#
b1100000 )
b1100000 .
b1100000 S
b1100000 z
b1100000 ""
b100011 ?
b100011 m
b10 &
b10 2
b10 B
b10 l
b10 G
b10 j
b0 :
b0 1"
b0 '
b0 0
b0 J
b0 ,"
b0 /"
b110 9
b110 2"
b0 7
b0 3"
b1100000001000000 s
1%
1*
b11000000010000000100011 5
b11000000010000000100011 ,
b11000000010000000100011 4
#980
1!
1#
0%
0*
#1000
b1101000 "
b1101000 3
b1101000 @
b1100100 <
b1100100 $"
b111 w
b11100000010000000000000 t
b10100000000110 v
0!
0#
b1100100 )
b1100100 .
b1100100 S
b1100100 z
b1100100 ""
bx '
bx 0
bx J
bx ,"
bx /"
b111 9
b111 2"
b1110000001000000 s
1%
1*
b11100000010000000100011 5
b11100000010000000100011 ,
b11100000010000000100011 4
#1020
1!
1#
0%
0*
#1040
b1100100 I
b1100100 '"
b1100100 0"
16
b1100100 (
b1100100 /
b1100100 M
b1100100 [
b1100100 %"
0V
b1100100 c
b1100100 b
b1100100 a
b1100100 N
b1100100 T
b1100100 ]
b1100100 f
b1100100 -"
0$
0A
b1100100 E
b1100100 y
b1100100 ~
b1100100 ("
b0 H
b0 n
b0 r
08
b1101100 "
b1101100 3
b1101100 @
b1101000 <
b1101000 $"
b1100100 w
b110010000000000000000000000 t
b1100110 u
b1100110 x
b1100100 v
0!
0#
b1101000 )
b1101000 .
b1101000 S
b1101000 z
b1101000 ""
b10011 ?
b10011 m
b0 &
b0 2
b0 B
b0 l
b0 G
b0 j
b11 F
b11 k
b100 9
b100 2"
b110 7
b110 3"
b11001000000000000110 s
1%
1*
b110010000000000001100010011 5
b110010000000000001100010011 ,
b110010000000000001100010011 4
#1060
1!
1#
0%
0*
#1080
b10100 I
b10100 '"
b10100 0"
b10100 (
b10100 /
b10100 M
b10100 [
b10100 %"
b10100 c
b10100 b
b10100 a
b10100 N
b10100 T
b10100 ]
b10100 f
b10100 -"
b10100 E
b10100 y
b10100 ~
b10100 ("
b1110000 "
b1110000 3
b1110000 @
b1101100 <
b1101100 $"
b10100 w
b1010000000000000000000000 t
b111 u
b100000000110 x
b10100 v
0!
0#
b1101100 )
b1101100 .
b1101100 S
b1101100 z
b1101100 ""
b0 F
b0 k
b10100 9
b10100 2"
b111 7
b111 3"
b101000000000000111 s
1%
1*
b1010000000000001110010011 5
b1010000000000001110010011 ,
b1010000000000001110010011 4
#1100
1!
1#
0%
0*
#1120
x6
xW
xV
xX
xY
x`
x_
bx h
b0 Q
b0 q
b0 +"
bx I
bx '"
bx 0"
bx (
bx /
bx M
bx [
bx %"
bx c
bx b
bx a
bx N
bx T
bx ]
bx f
bx -"
b111 E
b111 y
b111 ~
b111 ("
b1110100 "
b1110100 3
b1110100 @
b1110000 <
b1110000 $"
b111 w
b11100110000000000000000 t
b11100 u
b11100 x
b110000100000000110 v
0!
0#
b1110000 )
b1110000 .
b1110000 S
b1110000 z
b1110000 ""
b110011 ?
b110011 m
b110 :
b110 1"
b111 9
b111 2"
b11100 7
b11100 3"
b1110011000011100 s
1%
1*
b11100110000111000110011 5
b11100110000111000110011 ,
b11100110000111000110011 4
#1140
1!
1#
0%
0*
#1160
b1 Q
b1 q
b1 +"
0\
1$
1A
b0 P
b0 Z
b0 p
b0 I
b0 '"
b0 0"
b10 H
b10 n
b10 r
18
06
b0 (
b0 /
b0 M
b0 [
b0 %"
0W
1V
0X
0Y
0`
b0 c
0_
b0 b
b0 a
b0 h
b0 N
b0 T
b0 ]
b0 f
b0 -"
b0 E
b0 y
b0 ~
b0 ("
b1111000 "
b1111000 3
b1111000 @
b1110100 <
b1110100 $"
b110 w
b11000000010000000000000 t
b0 u
b0 x
b10000000000110 v
0!
0#
b1110100 )
b1110100 .
b1110100 S
b1110100 z
b1110100 ""
b100011 ?
b100011 m
b10 &
b10 2
b10 B
b10 l
b10 G
b10 j
b0 :
b0 1"
b0 '
b0 0
b0 J
b0 ,"
b0 /"
b110 9
b110 2"
b0 7
b0 3"
b1100000001000000 s
1%
1*
b11000000010000000100011 5
b11000000010000000100011 ,
b11000000010000000100011 4
#1180
1!
1#
0%
0*
#1200
b1111100 "
b1111100 3
b1111100 @
b1111000 <
b1111000 $"
b111 w
b11100000010000000000000 t
b10100000000110 v
0!
0#
b1111000 )
b1111000 .
b1111000 S
b1111000 z
b1111000 ""
bx '
bx 0
bx J
bx ,"
bx /"
b111 9
b111 2"
b1110000001000000 s
1%
1*
b11100000010000000100011 5
b11100000010000000100011 ,
b11100000010000000100011 4
#1220
1!
1#
0%
0*
#1240
b1100100 I
b1100100 '"
b1100100 0"
16
b1100100 (
b1100100 /
b1100100 M
b1100100 [
b1100100 %"
0V
b1100100 c
b1100100 b
b1100100 a
b1100100 N
b1100100 T
b1100100 ]
b1100100 f
b1100100 -"
0$
0A
b1100100 E
b1100100 y
b1100100 ~
b1100100 ("
b0 H
b0 n
b0 r
08
b10000000 "
b10000000 3
b10000000 @
b1111100 <
b1111100 $"
b1100100 w
b110010000000000000000000000 t
b1100110 u
b1100110 x
b1100100 v
0!
0#
b1111100 )
b1111100 .
b1111100 S
b1111100 z
b1111100 ""
b10011 ?
b10011 m
b0 &
b0 2
b0 B
b0 l
b0 G
b0 j
b11 F
b11 k
b100 9
b100 2"
b110 7
b110 3"
b11001000000000000110 s
1%
1*
b110010000000000001100010011 5
b110010000000000001100010011 ,
b110010000000000001100010011 4
