Verilog/EXP11/Test/rv32is_wave.vcd
$date
	Mon Nov 15 20:34:46 2021
$end
$version
	Icarus Verilog
$end
$timescale
	10ns
$end
$scope module rv32is_test $end
$var wire 1 ! imemclk $end
$var wire 32 " imemaddr [31:0] $end
$var wire 1 # dmemwrclk $end
$var wire 1 $ dmemwe $end
$var wire 1 % dmemrdclk $end
$var wire 3 & dmemop [2:0] $end
$var wire 32 ' dmemdatain [31:0] $end
$var wire 32 ( dmemaddr [31:0] $end
$var wire 32 ) dbgdata [31:0] $end
$var reg 1 * clock $end
$var reg 32 + dmemdataout [31:0] $end
$var reg 32 , imemdataout [31:0] $end
$var reg 1 - reset $end
$scope module __rv32is $end
$var wire 1 * clock $end
$var wire 32 . dbgdata [31:0] $end
$var wire 32 / dmemaddr [31:0] $end
$var wire 32 0 dmemdatain [31:0] $end
$var wire 32 1 dmemdataout [31:0] $end
$var wire 3 2 dmemop [2:0] $end
$var wire 1 % dmemrdclk $end
$var wire 1 $ dmemwe $end
$var wire 1 # dmemwrclk $end
$var wire 32 3 imemaddr [31:0] $end
$var wire 1 ! imemclk $end
$var wire 32 4 imemdataout [31:0] $end
$var wire 32 5 instr [31:0] $end
$var wire 1 - reset $end
$var wire 1 6 zero $end
$var wire 5 7 rw [4:0] $end
$var wire 1 8 regwr $end
$var wire 5 9 rb [4:0] $end
$var wire 5 : ra [4:0] $end
$var wire 1 ; pcBsrc $end
$var wire 32 < pcB [31:0] $end
$var wire 1 = pcAsrc $end
$var wire 32 > pcA [31:0] $end
$var wire 7 ? op [6:0] $end
$var wire 32 @ nxtpc [31:0] $end
$var wire 1 A memwr $end
$var wire 3 B memop [2:0] $end
$var wire 1 C mem2reg $end
$var wire 1 D less $end
$var wire 32 E imm [31:0] $end
$var wire 7 F func7 [6:0] $end
$var wire 3 G func3 [2:0] $end
$var wire 3 H extop [2:0] $end
$var wire 32 I busW [31:0] $end
$var wire 32 J busB [31:0] $end
$var wire 32 K busA [31:0] $end
$var wire 3 L branch [2:0] $end
$var wire 32 M aluresult [31:0] $end
$var wire 32 N alub [31:0] $end
$var wire 32 O alua [31:0] $end
$var wire 4 P ALUctr [3:0] $end
$var wire 2 Q ALUBsrc [1:0] $end
$var wire 1 R ALUAsrc $end
$var reg 32 S pc [31:0] $end
$scope module alu $end
$var wire 32 T datab [31:0] $end
$var wire 32 U dataa [31:0] $end
$var wire 1 V ZF $end
$var wire 1 W SF $end
$var wire 1 X OF $end
$var wire 1 Y CF $end
$var wire 4 Z ALUctr [3:0] $end
$var reg 32 [ aluresult [31:0] $end
$var reg 1 D less $end
$var reg 1 6 zero $end
$scope module adder $end
$var wire 1 \ add_or_sub $end
$var wire 32 ] datab [31:0] $end
$var wire 32 ^ dataa [31:0] $end
$var reg 1 Y CF $end
$var reg 1 X OF $end
$var reg 1 W SF $end
$var reg 1 V ZF $end
$var reg 1 _ carry_n $end
$var reg 1 ` carry_n_1 $end
$var reg 32 a datab_xor [31:0] $end
$var reg 32 b result [31:0] $end
$var reg 32 c result_tmp [31:0] $end
$upscope $end
$scope module shifter $end
$var wire 1 d a_or_h $end
$var wire 1 e l_or_r $end
$var wire 32 f datab [31:0] $end
$var wire 32 g dataa [31:0] $end
$var reg 32 h result [31:0] $end
$upscope $end
$upscope $end
$scope module branchcond $end
$var wire 1 D less $end
$var wire 1 = pcAsrc $end
$var wire 1 ; pcBsrc $end
$var wire 1 6 zero $end
$var wire 3 i branch [2:0] $end
$upscope $end
$scope module contrgen $end
$var wire 1 R ALUAsrc $end
$var wire 3 j func3 [2:0] $end
$var wire 7 k func7 [6:0] $end
$var wire 3 l memop [2:0] $end
$var wire 1 A memwr $end
$var wire 7 m op [6:0] $end
$var wire 1 8 regwr $end
$var wire 1 C mem2reg $end
$var wire 3 n extop [2:0] $end
$var wire 3 o branch [2:0] $end
$var wire 4 p ALUctr [3:0] $end
$var wire 2 q ALUBsrc [1:0] $end
$upscope $end
$scope module immgen $end
$var wire 3 r extop [2:0] $end
$var wire 25 s instr_31_7 [24:0] $end
$var wire 32 t immU [31:0] $end
$var wire 32 u immS [31:0] $end
$var wire 32 v immJ [31:0] $end
$var wire 32 w immI [31:0] $end
$var wire 32 x immB [31:0] $end
$var wire 32 y imm [31:0] $end
$upscope $end
$scope module mux2_ALUAsrc $end
$var wire 32 z input1 [31:0] $end
$var wire 1 R selector $end
$var wire 32 { input0 [31:0] $end
$var wire 32 | data [31:0] $end
$upscope $end
$scope module mux2_pcAsrc $end
$var wire 32 } input0 [31:0] $end
$var wire 32 ~ input1 [31:0] $end
$var wire 1 = selector $end
$var wire 32 !" data [31:0] $end
$upscope $end
$scope module mux2_pcBsrc $end
$var wire 32 "" input0 [31:0] $end
$var wire 1 ; selector $end
$var wire 32 #" input1 [31:0] $end
$var wire 32 $" data [31:0] $end
$upscope $end
$scope module mux2_regwr $end
$var wire 32 %" input0 [31:0] $end
$var wire 32 &" input1 [31:0] $end
$var wire 1 C selector $end
$var wire 32 '" data [31:0] $end
$upscope $end
$scope module mux4_ALUBsrc $end
$var wire 32 (" input1 [31:0] $end
$var wire 32 )" input2 [31:0] $end
$var wire 32 *" input3 [31:0] $end
$var wire 2 +" selector [1:0] $end
$var wire 32 ," input0 [31:0] $end
$var wire 32 -" data [31:0] $end
$upscope $end
$scope module myregfile $end
$var wire 32 ." busA [31:0] $end
$var wire 32 /" busB [31:0] $end
$var wire 32 0" busW [31:0] $end
$var wire 5 1" ra [4:0] $end
$var wire 5 2" rb [4:0] $end
$var wire 1 8 regwr $end
$var wire 5 3" rw [4:0] $end
$var wire 1 * wrclk $end
$upscope $end
$upscope $end
$upscope $end
$enddefinitions $end
#0
$dumpvars
b110 3"
b100 2"
b0 1"
b1100100 0"
bx /"
b0 ."
b1100100 -"
bx ,"
b1 +"
b0 *"
b100 )"
b1100100 ("
b1100100 '"
b0 &"
b1100100 %"
b0 $"
b0 #"
b0 ""
b100 !"
b1100100 ~
b100 }
b0 |
b0 {
b0 z
b1100100 y
b1100110 x
b1100100 w
b1100100 v
b1100110 u
b110010000000000000000000000 t
b11001000000000000110 s
b0 r
b1 q
b0 p
b0 o
b0 n
b10011 m
b0 l
b11 k
b0 j
b0 i
b0 h
b0 g
b1100100 f
0e
0d
b1100100 c
b1100100 b
b1100100 a
0`
0_
b0 ^
b1100100 ]
0\
b1100100 [
b0 Z
0Y
0X
0W
0V
b0 U
b1100100 T
b0 S
0R
b1 Q
b0 P
b0 O
b1100100 N
b1100100 M
b0 L
b0 K
bx J
b1100100 I
b0 H
b0 G
b11 F
b1100100 E
0D
0C
b0 B
0A
b100 @
b10011 ?
b100 >
0=
b0 <
0;
b0 :
b100 9
18
b110 7
16
b110010000000000001100010011 5
b110010000000000001100010011 4
b100 3
b0 2
b0 1
bx 0
b1100100 /
b0 .
1-
b110010000000000001100010011 ,
b0 +
0*
b0 )
b1100100 (
bx '
b0 &
0%
0$
1#
b100 "
1!
$end
#10
0-
#20
0!
0#
1%
1*
#40
b1000 "
b1000 3
b1000 @
b100 <
b100 $"
b100 )
b100 .
b100 S
b100 z
b100 ""
06
1V
b0 I
b0 '"
b0 0"
1$
1A
b0 (
b0 /
b0 M
b0 [
b0 %"
b0 c
b0 b
b0 a
b0 N
b0 T
b0 ]
b0 f
b0 -"
08
b10 H
b10 n
b10 r
b0 E
b0 y
b0 ~
b0 ("
b110 w
b11000000010000000000000 t
b0 u
b0 x
b10000000000110 v
1!
1#
b100011 ?
b100011 m
b10 &
b10 2
b10 B
b10 l
b10 G
b10 j
b0 F
b0 k
b1100100 '
b1100100 0
b1100100 J
b1100100 ,"
b1100100 /"
b110 9
b110 2"
b0 7
b0 3"
b1100000001000000 s
0%
0*
b11000000010000000100011 5
b11000000010000000100011 ,
b11000000010000000100011 4
#60
0!
0#
1%
1*
#80
b1100 "
b1100 3
b1100 @
b1000 <
b1000 $"
b1000 )
b1000 .
b1000 S
b1000 z
b1000 ""
b10100 I
b10100 '"
b10100 0"
16
b10100 (
b10100 /
b10100 M
b10100 [
b10100 %"
0V
b10100 c
b10100 b
b10100 a
b10100 N
b10100 T
b10100 ]
b10100 f
b10100 -"
0$
0A
b10100 E
b10100 y
b10100 ~
b10100 ("
18
b0 H
b0 n
b0 r
b10100 w
b1010000000000000000000000 t
b111 u
b100000000110 x
b10100 v
1!
1#
b10011 ?
b10011 m
b0 &
b0 2
b0 B
b0 l
b0 G
b0 j
bx '
bx 0
bx J
bx ,"
bx /"
b10100 9
b10100 2"
b111 7
b111 3"
b101000000000000111 s
0%
0*
b1010000000000001110010011 5
b1010000000000001110010011 ,
b1010000000000001110010011 4
#100
0!
0#
1%
1*
#120
b10000 "
b10000 3
b10000 @
b1100 <
b1100 $"
b1100 )
b1100 .
b1100 S
b1100 z
b1100 ""
06
1V
b0 I
b0 '"
b0 0"
1$
1A
b0 (
b0 /
b0 M
b0 [
b0 %"
b0 c
b0 b
b0 a
b0 N
b0 T
b0 ]
b0 f
b0 -"
08
b10 H
b10 n
b10 r
b0 E
b0 y
b0 ~
b0 ("
b111 w
b11100000010000000000000 t
b0 u
b0 x
b10100000000110 v
1!
1#
b100011 ?
b100011 m
b10 &
b10 2
b10 B
b10 l
b10 G
b10 j
b10100 '
b10100 0
b10100 J
b10100 ,"
b10100 /"
b111 9
b111 2"
b0 7
b0 3"
b1110000001000000 s
0%
0*
b11100000010000000100011 5
b11100000010000000100011 ,
b11100000010000000100011 4
#140
0!
0#
1%
1*
#160
b10100 "
b10100 3
b10100 @
b10000 <
b10000 $"
b10000 )
b10000 .
b10000 S
b10000 z
b10000 ""
b0 Q
b0 q
b0 +"
b10100 a
b10100 N
b10100 T
b10100 ]
b10100 f
b10100 -"
0$
0A
18
b111 E
b111 y
b111 ~
b111 ("
b0 H
b0 n
b0 r
b1111000 I
b1111000 '"
b1111000 0"
16
b1111000 (
b1111000 /
b1111000 M
b1111000 [
b1111000 %"
0V
b1111000 c
b1111000 b
b110010000000000000000000000 h
b1100100 O
b1100100 U
b1100100 ^
b1100100 g
b1100100 |
b11100110000000000000000 t
b11100 u
b11100 x
b110000100000000110 v
1!
1#
b110011 ?
b110011 m
b0 &
b0 2
b0 B
b0 l
b0 G
b0 j
b1100100 K
b1100100 {
b1100100 #"
b1100100 ."
b110 :
b110 1"
b11100 7
b11100 3"
b1110011000011100 s
0%
0*
b11100110000111000110011 5
b11100110000111000110011 ,
b11100110000111000110011 4
#180
0!
0#
1%
1*
#200
b11000 "
b11000 3
b11000 @
b10100 <
b10100 $"
b10100 )
b10100 .
b10100 S
b10100 z
b10100 ""
1V
b1 Q
b1 q
b1 +"
0Y
0\
1$
1A
06
08
b0 P
b0 Z
b0 p
b10 H
b10 n
b10 r
b0 I
b0 '"
b0 0"
b0 (
b0 /
b0 M
b0 [
b0 %"
b0 c
b0 b
b0 a
b0 h
b0 N
b0 T
b0 ]
b0 f
b0 -"
b0 E
b0 y
b0 ~
b0 ("
b0 O
b0 U
b0 ^
b0 g
b0 |
b110 w
b11000000010000000000000 t
b0 u
b0 x
b10000000000110 v
1!
1#
b100011 ?
b100011 m
b10 &
b10 2
b10 B
b10 l
b10 G
b10 j
b0 K
b0 {
b0 #"
b0 ."
b0 :
b0 1"
b1100100 '
b1100100 0
b1100100 J
b1100100 ,"
b1100100 /"
b110 9
b110 2"
b0 7
b0 3"
b1100000001000000 s
0%
0*
b11000000010000000100011 5
b11000000010000000100011 ,
b11000000010000000100011 4
#220
0!
0#
1%
1*
#240
b11100 "
b11100 3
b11100 @
b11000 <
b11000 $"
b11000 )
b11000 .
b11000 S
b11000 z
b11000 ""
b111 w
b11100000010000000000000 t
b10100000000110 v
1!
1#
b10100 '
b10100 0
b10100 J
b10100 ,"
b10100 /"
b111 9
b111 2"
b1110000001000000 s
0%
0*
b11100000010000000100011 5
b11100000010000000100011 ,
b11100000010000000100011 4
#260
0!
0#
1%
1*
#280
b11100 <
b11100 $"
b11100 )
b11100 .
b11100 S
b11100 z
b11100 ""
b100100 "
b100100 3
b100100 @
b1000 >
b1000 !"
1=
1Y
1\
b11111111111111111111111110011011 a
b0 Q
b0 q
b0 +"
0$
0A
b1100100 N
b1100100 T
b1100100 ]
b1100100 f
b1100100 -"
b10 P
b10 Z
b10 p
b1000 E
b1000 y
b1000 ~
b1000 ("
b11 H
b11 n
b11 r
b101 L
b101 i
b101 o
b0 I
b0 '"
b0 0"
06
b0 (
b0 /
b0 M
b0 [
b0 %"
0V
b1111001 c
b1111001 b
b101000000 h
b10100 O
b10100 U
b10100 ^
b10100 g
b10100 |
b110 w
b11000111001000000000000 t
b1000 u
b1000 x
b111001000000000110 v
1!
1#
b1100011 ?
b1100011 m
b1 &
b1 2
b1 B
b1 l
b1 G
b1 j
b10100 K
b10100 {
b10100 #"
b10100 ."
b111 :
b111 1"
b1100100 '
b1100100 0
b1100100 J
b1100100 ,"
b1100100 /"
b110 9
b110 2"
b1000 7
b1000 3"
b1100011100101000 s
0%
0*
b11000111001010001100011 5
b11000111001010001100011 ,
b11000111001010001100011 4
#300
0!
0#
1%
1*
#320
b100100 <
b100100 $"
b100100 )
b100100 .
b100100 S
b100100 z
b100100 ""
0\
b1 Q
b1 q
b1 +"
0=
b101000 "
b101000 3
b101000 @
b100 >
b100 !"
b0 P
b0 Z
b0 p
b1100100 E
b1100100 y
b1100100 ~
b1100100 ("
18
b0 L
b0 i
b0 o
b1100100 I
b1100100 '"
b1100100 0"
b0 H
b0 n
b0 r
b1100100 (
b1100100 /
b1100100 M
b1100100 [
b1100100 %"
0D
16
0W
0V
0X
0Y
0`
b1100100 c
0_
b1100100 b
b1100100 a
b0 h
b1100100 N
b1100100 T
b1100100 ]
b1100100 f
b1100100 -"
b0 O
b0 U
b0 ^
b0 g
b0 |
b1100100 w
b110010000000000000000000000 t
b1100110 u
b1100110 x
b1100100 v
1!
1#
b10011 ?
b10011 m
b0 &
b0 2
b0 B
b0 l
b0 G
b0 j
b11 F
b11 k
b0 K
b0 {
b0 #"
b0 ."
b0 :
b0 1"
bx '
bx 0
bx J
bx ,"
bx /"
b100 9
b100 2"
b110 7
b110 3"
b11001000000000000110 s
0%
0*
b110010000000000001100010011 5
b110010000000000001100010011 ,
b110010000000000001100010011 4
#340
0!
0#
1%
1*
#360
b101100 "
b101100 3
b101100 @
b101000 <
b101000 $"
b101000 )
b101000 .
b101000 S
b101000 z
b101000 ""
06
1V
b0 I
b0 '"
b0 0"
1$
1A
b0 (
b0 /
b0 M
b0 [
b0 %"
b0 c
b0 b
b0 a
b0 N
b0 T
b0 ]
b0 f
b0 -"
08
b10 H
b10 n
b10 r
b0 E
b0 y
b0 ~
b0 ("
b110 w
b11000000010000000000000 t
b0 u
b0 x
b10000000000110 v
1!
1#
b100011 ?
b100011 m
b10 &
b10 2
b10 B
b10 l
b10 G
b10 j
b0 F
b0 k
b1100100 '
b1100100 0
b1100100 J
b1100100 ,"
b1100100 /"
b110 9
b110 2"
b0 7
b0 3"
b1100000001000000 s
0%
0*
b11000000010000000100011 5
b11000000010000000100011 ,
b11000000010000000100011 4
#380
0!
0#
1%
1*
#400
b110000 "
b110000 3
b110000 @
b101100 <
b101100 $"
b101100 )
b101100 .
b101100 S
b101100 z
b101100 ""
b10100 I
b10100 '"
b10100 0"
16
b10100 (
b10100 /
b10100 M
b10100 [
b10100 %"
0V
b10100 c
b10100 b
b10100 a
b10100 N
b10100 T
b10100 ]
b10100 f
b10100 -"
0$
0A
b10100 E
b10100 y
b10100 ~
b10100 ("
18
b0 H
b0 n
b0 r
b10100 w
b1010000000000000000000000 t
b111 u
b100000000110 x
b10100 v
1!
1#
b10011 ?
b10011 m
b0 &
b0 2
b0 B
b0 l
b0 G
b0 j
bx '
bx 0
bx J
bx ,"
bx /"
b10100 9
b10100 2"
b111 7
b111 3"
b101000000000000111 s
0%
0*
b1010000000000001110010011 5
b1010000000000001110010011 ,
b1010000000000001110010011 4
#420
0!
0#
1%
1*
#440
b110100 "
b110100 3
b110100 @
b110000 <
b110000 $"
b110000 )
b110000 .
b110000 S
b110000 z
b110000 ""
06
1V
b0 I
b0 '"
b0 0"
1$
1A
b0 (
b0 /
b0 M
b0 [
b0 %"
b0 c
b0 b
b0 a
b0 N
b0 T
b0 ]
b0 f
b0 -"
08
b10 H
b10 n
b10 r
b0 E
b0 y
b0 ~
b0 ("
b111 w
b11100000010000000000000 t
b0 u
b0 x
b10100000000110 v
1!
1#
b100011 ?
b100011 m
b10 &
b10 2
b10 B
b10 l
b10 G
b10 j
b10100 '
b10100 0
b10100 J
b10100 ,"
b10100 /"
b111 9
b111 2"
b0 7
b0 3"
b1110000001000000 s
0%
0*
b11100000010000000100011 5
b11100000010000000100011 ,
b11100000010000000100011 4
#460
0!
0#
1%
1*
#480
b111000 "
b111000 3
b111000 @
b110100 <
b110100 $"
b110100 )
b110100 .
b110100 S
b110100 z
b110100 ""
b0 Q
b0 q
b0 +"
b10100 a
b10100 N
b10100 T
b10100 ]
b10100 f
b10100 -"
0$
0A
18
b111 E
b111 y
b111 ~
b111 ("
b0 H
b0 n
b0 r
b1111000 I
b1111000 '"
b1111000 0"
16
b1111000 (
b1111000 /
b1111000 M
b1111000 [
b1111000 %"
0V
b1111000 c
b1111000 b
b110010000000000000000000000 h
b1100100 O
b1100100 U
b1100100 ^
b1100100 g
b1100100 |
b11100110000000000000000 t
b11100 u
b11100 x
b110000100000000110 v
1!
1#
b110011 ?
b110011 m
b0 &
b0 2
b0 B
b0 l
b0 G
b0 j
b1100100 K
b1100100 {
b1100100 #"
b1100100 ."
b110 :
b110 1"
b11100 7
b11100 3"
b1110011000011100 s
0%
0*
b11100110000111000110011 5
b11100110000111000110011 ,
b11100110000111000110011 4
#500
0!
0#
1%
1*
#520
b111100 "
b111100 3
b111100 @
b111000 <
b111000 $"
b111000 )
b111000 .
b111000 S
b111000 z
b111000 ""
1V
b1 Q
b1 q
b1 +"
0Y
0\
1$
1A
06
08
b0 P
b0 Z
b0 p
b10 H
b10 n
b10 r
b0 I
b0 '"
b0 0"
b0 (
b0 /
b0 M
b0 [
b0 %"
b0 c
b0 b
b0 a
b0 h
b0 N
b0 T
b0 ]
b0 f
b0 -"
b0 E
b0 y
b0 ~
b0 ("
b0 O
b0 U
b0 ^
b0 g
b0 |
b110 w
b11000000010000000000000 t
b0 u
b0 x
b10000000000110 v
1!
1#
b100011 ?
b100011 m
b10 &
b10 2
b10 B
b10 l
b10 G
b10 j
b0 K
b0 {
b0 #"
b0 ."
b0 :
b0 1"
b1100100 '
b1100100 0
b1100100 J
b1100100 ,"
b1100100 /"
b110 9
b110 2"
b0 7
b0 3"
b1100000001000000 s
0%
0*
b11000000010000000100011 5
b11000000010000000100011 ,
b11000000010000000100011 4
#540
0!
0#
1%
1*
#560
b1000000 "
b1000000 3
b1000000 @
b111100 <
b111100 $"
b111100 )
b111100 .
b111100 S
b111100 z
b111100 ""
b111 w
b11100000010000000000000 t
b10100000000110 v
1!
1#
b10100 '
b10100 0
b10100 J
b10100 ,"
b10100 /"
b111 9
b111 2"
b1110000001000000 s
0%
0*
b11100000010000000100011 5
b11100000010000000100011 ,
b11100000010000000100011 4
#580
0!
0#
1%
1*
#600
b1000000 <
b1000000 $"
b1000000 )
b1000000 .
b1000000 S
b1000000 z
b1000000 ""
b1001000 "
b1001000 3
b1001000 @
b1000 >
b1000 !"
1=
1Y
1\
b11111111111111111111111110011011 a
b0 Q
b0 q
b0 +"
0$
0A
b1100100 N
b1100100 T
b1100100 ]
b1100100 f
b1100100 -"
b10 P
b10 Z
b10 p
b1000 E
b1000 y
b1000 ~
b1000 ("
b11 H
b11 n
b11 r
b101 L
b101 i
b101 o
b0 I
b0 '"
b0 0"
06
b0 (
b0 /
b0 M
b0 [
b0 %"
0V
b1111001 c
b1111001 b
b101000000 h
b10100 O
b10100 U
b10100 ^
b10100 g
b10100 |
b110 w
b11000111001000000000000 t
b1000 u
b1000 x
b111001000000000110 v
1!
1#
b1100011 ?
b1100011 m
b1 &
b1 2
b1 B
b1 l
b1 G
b1 j
b10100 K
b10100 {
b10100 #"
b10100 ."
b111 :
b111 1"
b1100100 '
b1100100 0
b1100100 J
b1100100 ,"
b1100100 /"
b110 9
b110 2"
b1000 7
b1000 3"
b1100011100101000 s
0%
0*
b11000111001010001100011 5
b11000111001010001100011 ,
b11000111001010001100011 4
#620
0!
0#
1%
1*
#640
b1001000 <
b1001000 $"
b1001000 )
b1001000 .
b1001000 S
b1001000 z
b1001000 ""
0\
b1 Q
b1 q
b1 +"
0=
b1001100 "
b1001100 3
b1001100 @
b100 >
b100 !"
b0 P
b0 Z
b0 p
b1100100 E
b1100100 y
b1100100 ~
b1100100 ("
18
b0 L
b0 i
b0 o
b1100100 I
b1100100 '"
b1100100 0"
b0 H
b0 n
b0 r
b1100100 (
b1100100 /
b1100100 M
b1100100 [
b1100100 %"
0D
16
0W
0V
0X
0Y
0`
b1100100 c
0_
b1100100 b
b1100100 a
b0 h
b1100100 N
b1100100 T
b1100100 ]
b1100100 f
b1100100 -"
b0 O
b0 U
b0 ^
b0 g
b0 |
b1100100 w
b110010000000000000000000000 t
b1100110 u
b1100110 x
b1100100 v
1!
1#
b10011 ?
b10011 m
b0 &
b0 2
b0 B
b0 l
b0 G
b0 j
b11 F
b11 k
b0 K
b0 {
b0 #"
b0 ."
b0 :
b0 1"
bx '
bx 0
bx J
bx ,"
bx /"
b100 9
b100 2"
b110 7
b110 3"
b11001000000000000110 s
0%
0*
b110010000000000001100010011 5
b110010000000000001100010011 ,
b110010000000000001100010011 4
#660
0!
0#
1%
1*
#680
b1010000 "
b1010000 3
b1010000 @
b1001100 <
b1001100 $"
b1001100 )
b1001100 .
b1001100 S
b1001100 z
b1001100 ""
06
1V
b0 I
b0 '"
b0 0"
1$
1A
b0 (
b0 /
b0 M
b0 [
b0 %"
b0 c
b0 b
b0 a
b0 N
b0 T
b0 ]
b0 f
b0 -"
08
b10 H
b10 n
b10 r
b0 E
b0 y
b0 ~
b0 ("
b110 w
b11000000010000000000000 t
b0 u
b0 x
b10000000000110 v
1!
1#
b100011 ?
b100011 m
b10 &
b10 2
b10 B
b10 l
b10 G
b10 j
b0 F
b0 k
b1100100 '
b1100100 0
b1100100 J
b1100100 ,"
b1100100 /"
b110 9
b110 2"
b0 7
b0 3"
b1100000001000000 s
0%
0*
b11000000010000000100011 5
b11000000010000000100011 ,
b11000000010000000100011 4
#700
0!
0#
1%
1*
#720
b1010100 "
b1010100 3
b1010100 @
b1010000 <
b1010000 $"
b1010000 )
b1010000 .
b1010000 S
b1010000 z
b1010000 ""
b10100 I
b10100 '"
b10100 0"
16
b10100 (
b10100 /
b10100 M
b10100 [
b10100 %"
0V
b10100 c
b10100 b
b10100 a
b10100 N
b10100 T
b10100 ]
b10100 f
b10100 -"
0$
0A
b10100 E
b10100 y
b10100 ~
b10100 ("
18
b0 H
b0 n
b0 r
b10100 w
b1010000000000000000000000 t
b111 u
b100000000110 x
b10100 v
1!
1#
b10011 ?
b10011 m
b0 &
b0 2
b0 B
b0 l
b0 G
b0 j
bx '
bx 0
bx J
bx ,"
bx /"
b10100 9
b10100 2"
b111 7
b111 3"
b101000000000000111 s
0%
0*
b1010000000000001110010011 5
b1010000000000001110010011 ,
b1010000000000001110010011 4
#740
0!
0#
1%
1*
#760
b1011000 "
b1011000 3
b1011000 @
b1010100 <
b1010100 $"
b1010100 )
b1010100 .
b1010100 S
b1010100 z
b1010100 ""
06
1V
b0 I
b0 '"
b0 0"
1$
1A
b0 (
b0 /
b0 M
b0 [
b0 %"
b0 c
b0 b
b0 a
b0 N
b0 T
b0 ]
b0 f
b0 -"
08
b10 H
b10 n
b10 r
b0 E
b0 y
b0 ~
b0 ("
b111 w
b11100000010000000000000 t
b0 u
b0 x
b10100000000110 v
1!
1#
b100011 ?
b100011 m
b10 &
b10 2
b10 B
b10 l
b10 G
b10 j
b10100 '
b10100 0
b10100 J
b10100 ,"
b10100 /"
b111 9
b111 2"
b0 7
b0 3"
b1110000001000000 s
0%
0*
b11100000010000000100011 5
b11100000010000000100011 ,
b11100000010000000100011 4
#780
0!
0#
1%
1*
#800
b1011100 "
b1011100 3
b1011100 @
b1011000 <
b1011000 $"
b1011000 )
b1011000 .
b1011000 S
b1011000 z
b1011000 ""
b0 Q
b0 q
b0 +"
b10100 a
b10100 N
b10100 T
b10100 ]
b10100 f
b10100 -"
0$
0A
18
b111 E
b111 y
b111 ~
b111 ("
b0 H
b0 n
b0 r
b1111000 I
b1111000 '"
b1111000 0"
16
b1111000 (
b1111000 /
b1111000 M
b1111000 [
b1111000 %"
0V
b1111000 c
b1111000 b
b110010000000000000000000000 h
b1100100 O
b1100100 U
b1100100 ^
b1100100 g
b1100100 |
b11100110000000000000000 t
b11100 u
b11100 x
b110000100000000110 v
1!
1#
b110011 ?
b110011 m
b0 &
b0 2
b0 B
b0 l
b0 G
b0 j
b1100100 K
b1100100 {
b1100100 #"
b1100100 ."
b110 :
b110 1"
b11100 7
b11100 3"
b1110011000011100 s
0%
0*
b11100110000111000110011 5
b11100110000111000110011 ,
b11100110000111000110011 4
#820
0!
0#
1%
1*
#840
b1100000 "
b1100000 3
b1100000 @
b1011100 <
b1011100 $"
b1011100 )
b1011100 .
b1011100 S
b1011100 z
b1011100 ""
1V
b1 Q
b1 q
b1 +"
0Y
0\
1$
1A
06
08
b0 P
b0 Z
b0 p
b10 H
b10 n
b10 r
b0 I
b0 '"
b0 0"
b0 (
b0 /
b0 M
b0 [
b0 %"
b0 c
b0 b
b0 a
b0 h
b0 N
b0 T
b0 ]
b0 f
b0 -"
b0 E
b0 y
b0 ~
b0 ("
b0 O
b0 U
b0 ^
b0 g
b0 |
b110 w
b11000000010000000000000 t
b0 u
b0 x
b10000000000110 v
1!
1#
b100011 ?
b100011 m
b10 &
b10 2
b10 B
b10 l
b10 G
b10 j
b0 K
b0 {
b0 #"
b0 ."
b0 :
b0 1"
b1100100 '
b1100100 0
b1100100 J
b1100100 ,"
b1100100 /"
b110 9
b110 2"
b0 7
b0 3"
b1100000001000000 s
0%
0*
b11000000010000000100011 5
b11000000010000000100011 ,
b11000000010000000100011 4
#860
0!
0#
1%
1*
#880
b1100100 "
b1100100 3
b1100100 @
b1100000 <
b1100000 $"
b1100000 )
b1100000 .
b1100000 S
b1100000 z
b1100000 ""
b111 w
b11100000010000000000000 t
b10100000000110 v
1!
1#
b10100 '
b10100 0
b10100 J
b10100 ,"
b10100 /"
b111 9
b111 2"
b1110000001000000 s
0%
0*
b11100000010000000100011 5
b11100000010000000100011 ,
b11100000010000000100011 4
#900
0!
0#
1%
1*
#920
b1100100 <
b1100100 $"
b1100100 )
b1100100 .
b1100100 S
b1100100 z
b1100100 ""
b1101100 "
b1101100 3
b1101100 @
b1000 >
b1000 !"
1=
1Y
1\
b11111111111111111111111110011011 a
b0 Q
b0 q
b0 +"
0$
0A
b1100100 N
b1100100 T
b1100100 ]
b1100100 f
b1100100 -"
b10 P
b10 Z
b10 p
b1000 E
b1000 y
b1000 ~
b1000 ("
b11 H
b11 n
b11 r
b101 L
b101 i
b101 o
b0 I
b0 '"
b0 0"
06
b0 (
b0 /
b0 M
b0 [
b0 %"
0V
b1111001 c
b1111001 b
b101000000 h
b10100 O
b10100 U
b10100 ^
b10100 g
b10100 |
b110 w
b11000111001000000000000 t
b1000 u
b1000 x
b111001000000000110 v
1!
1#
b1100011 ?
b1100011 m
b1 &
b1 2
b1 B
b1 l
b1 G
b1 j
b10100 K
b10100 {
b10100 #"
b10100 ."
b111 :
b111 1"
b1100100 '
b1100100 0
b1100100 J
b1100100 ,"
b1100100 /"
b110 9
b110 2"
b1000 7
b1000 3"
b1100011100101000 s
0%
0*
b11000111001010001100011 5
b11000111001010001100011 ,
b11000111001010001100011 4
#940
0!
0#
1%
1*
#960
b1101100 <
b1101100 $"
b1101100 )
b1101100 .
b1101100 S
b1101100 z
b1101100 ""
0\
b1 Q
b1 q
b1 +"
0=
b1110000 "
b1110000 3
b1110000 @
b100 >
b100 !"
b0 P
b0 Z
b0 p
b1100100 E
b1100100 y
b1100100 ~
b1100100 ("
18
b0 L
b0 i
b0 o
b1100100 I
b1100100 '"
b1100100 0"
b0 H
b0 n
b0 r
b1100100 (
b1100100 /
b1100100 M
b1100100 [
b1100100 %"
0D
16
0W
0V
0X
0Y
0`
b1100100 c
0_
b1100100 b
b1100100 a
b0 h
b1100100 N
b1100100 T
b1100100 ]
b1100100 f
b1100100 -"
b0 O
b0 U
b0 ^
b0 g
b0 |
b1100100 w
b110010000000000000000000000 t
b1100110 u
b1100110 x
b1100100 v
1!
1#
b10011 ?
b10011 m
b0 &
b0 2
b0 B
b0 l
b0 G
b0 j
b11 F
b11 k
b0 K
b0 {
b0 #"
b0 ."
b0 :
b0 1"
bx '
bx 0
bx J
bx ,"
bx /"
b100 9
b100 2"
b110 7
b110 3"
b11001000000000000110 s
0%
0*
b110010000000000001100010011 5
b110010000000000001100010011 ,
b110010000000000001100010011 4
#980
0!
0#
1%
1*
